processador_tb.vcd
$date
  Wed May 29 18:25:09 2024
$end
$version
  GHDL v0
$end
$timescale
  1 fs
$end
$scope module standard $end
$upscope $end
$scope module std_logic_1164 $end
$upscope $end
$scope module numeric_std $end
$upscope $end
$scope module processador_tb $end
$var reg 2 ! operation[1:0] $end
$var reg 16 " in_a[15:0] $end
$var reg 16 # in_b[15:0] $end
$var reg 16 $ ulaout[15:0] $end
$var reg 1 % is_zero $end
$var reg 1 & mux_2 $end
$var reg 3 ' read_0[2:0] $end
$var reg 3 ( read_1[2:0] $end
$var reg 3 ) write_register[2:0] $end
$var reg 16 * read_data1[15:0] $end
$var reg 16 + cte[15:0] $end
$var reg 1 , wr_en $end
$var reg 1 - finished $end
$var reg 1 . clk $end
$var reg 1 / rst $end
$var reg 16 0 ula_out[15:0] $end
$var reg 1 1 zero_flag $end
$var reg 16 2 r0[15:0] $end
$var reg 16 3 r1[15:0] $end
$var reg 16 4 r2[15:0] $end
$var reg 16 5 r3[15:0] $end
$var reg 16 6 r4[15:0] $end
$var reg 16 7 r5[15:0] $end
$var reg 16 8 r6[15:0] $end
$var reg 16 9 r7[15:0] $end
$scope module tp_lvl $end
$var reg 1 : clk $end
$var reg 1 ; rst $end
$var reg 2 < estado_out[1:0] $end
$var reg 16 = pc_out[15:0] $end
$var reg 16 > instruction_reg_out[15:0] $end
$var reg 16 ? acumulador_out[15:0] $end
$var reg 16 @ ula_out[15:0] $end
$var reg 16 A r0[15:0] $end
$var reg 16 B r1[15:0] $end
$var reg 16 C r2[15:0] $end
$var reg 16 D r3[15:0] $end
$var reg 16 E r4[15:0] $end
$var reg 16 F r5[15:0] $end
$var reg 16 G r6[15:0] $end
$var reg 16 H r7[15:0] $end
$var reg 16 I in_a[15:0] $end
$var reg 16 J in_b[15:0] $end
$var reg 16 K ulaout_s[15:0] $end
$var reg 1 L is_zero $end
$var reg 2 M operation_ula[1:0] $end
$var reg 1 N zero_flag_s $end
$var reg 1 O overflow_flag_s $end
$var reg 1 P carry_flag_s $end
$var reg 16 Q rega_data_out[15:0] $end
$var reg 16 R regb_data_out[15:0] $end
$var reg 16 S write_data_s[15:0] $end
$var reg 3 T write_register_s[2:0] $end
$var reg 3 U ra_address[2:0] $end
$var reg 3 V rb_address[2:0] $end
$var reg 1 W wr_en_s $end
$var reg 9 X const[8:0] $end
$var reg 16 Y data_out_instruction_reg[15:0] $end
$var reg 16 Z data_in_instruction_reg[15:0] $end
$var reg 4 [ opcode[3:0] $end
$var reg 1 \ wr_en_instruction_reg $end
$var reg 1 ] wr_en_accumulator $end
$var reg 16 ^ data_in_accumulator[15:0] $end
$var reg 16 _ data_out_accumulator[15:0] $end
$var reg 16 ` data_out_proto_control[15:0] $end
$var reg 1 a is_branch_s $end
$var reg 7 b branch_address_s[6:0] $end
$var reg 1 c wr_en_proto_control $end
$var reg 1 d flag_zero_in_ctr $end
$var reg 1 e flag_zero_out_ctr $end
$var reg 1 f flag_overflow_in_ctr $end
$var reg 1 g flag_overflow_out_ctr $end
$var reg 1 h flag_carry_in_ctr $end
$var reg 1 i flag_carry_out_ctr $end
$var reg 1 j wr_en_flags_ctr $end
$var reg 2 k estado_s[1:0] $end
$scope module ula_1 $end
$var reg 2 l operation[1:0] $end
$var reg 16 m in_a[15:0] $end
$var reg 16 n in_b[15:0] $end
$var reg 16 o ulaout[15:0] $end
$var reg 1 p zero_flag $end
$var reg 1 q overflow_flag $end
$var reg 1 r carry_flag $end
$var reg 16 s result_and[15:0] $end
$var reg 16 t result_xor[15:0] $end
$var reg 17 u result_subtracter[16:0] $end
$var reg 17 v result_adder[16:0] $end
$var reg 17 w final_result[16:0] $end
$scope module adder1 $end
$var reg 16 x in_a[15:0] $end
$var reg 16 y in_b[15:0] $end
$var reg 17 z result[16:0] $end
$upscope $end
$scope module subtracter1 $end
$var reg 16 { in_a[15:0] $end
$var reg 16 | in_b[15:0] $end
$var reg 17 } result[16:0] $end
$upscope $end
$scope module and_op1 $end
$var reg 16 !" in_a[15:0] $end
$var reg 16 "" in_b[15:0] $end
$var reg 16 #" result[15:0] $end
$upscope $end
$scope module xor_op1 $end
$var reg 16 $" in_a[15:0] $end
$var reg 16 %" in_b[15:0] $end
$var reg 16 &" result[15:0] $end
$var reg 16 '" aux[15:0] $end
$upscope $end
$upscope $end
$scope module reg_bd_1 $end
$var reg 3 (" read_r0[2:0] $end
$var reg 3 )" read_r1[2:0] $end
$var reg 1 *" wr_en $end
$var reg 3 +" write_register[2:0] $end
$var reg 16 ," write_data[15:0] $end
$var reg 1 -" clk $end
$var reg 1 ." rst $end
$var reg 16 /" read_data0[15:0] $end
$var reg 16 0" read_data1[15:0] $end
$var reg 16 1" r0[15:0] $end
$var reg 16 2" r1[15:0] $end
$var reg 16 3" r2[15:0] $end
$var reg 16 4" r3[15:0] $end
$var reg 16 5" r4[15:0] $end
$var reg 16 6" r5[15:0] $end
$var reg 16 7" r6[15:0] $end
$var reg 16 8" r7[15:0] $end
$var reg 16 9" reg0_out[15:0] $end
$var reg 16 :" reg1_out[15:0] $end
$var reg 16 ;" reg2_out[15:0] $end
$var reg 16 <" reg3_out[15:0] $end
$var reg 16 =" reg4_out[15:0] $end
$var reg 16 >" reg5_out[15:0] $end
$var reg 16 ?" reg6_out[15:0] $end
$var reg 16 @" reg7_out[15:0] $end
$var reg 16 A" reg0_in[15:0] $end
$var reg 16 B" reg1_in[15:0] $end
$var reg 16 C" reg2_in[15:0] $end
$var reg 16 D" reg3_in[15:0] $end
$var reg 16 E" reg4_in[15:0] $end
$var reg 16 F" reg5_in[15:0] $end
$var reg 16 G" reg6_in[15:0] $end
$var reg 16 H" reg7_in[15:0] $end
$var reg 1 I" wr_en0 $end
$var reg 1 J" wr_en1 $end
$var reg 1 K" wr_en2 $end
$var reg 1 L" wr_en3 $end
$var reg 1 M" wr_en4 $end
$var reg 1 N" wr_en5 $end
$var reg 1 O" wr_en6 $end
$var reg 1 P" wr_en7 $end
$scope module reg0 $end
$var reg 1 Q" clk $end
$var reg 1 R" rst $end
$var reg 1 S" wr_en $end
$var reg 16 T" data_in[15:0] $end
$var reg 16 U" data_out[15:0] $end
$var reg 16 V" reg[15:0] $end
$upscope $end
$scope module reg1 $end
$var reg 1 W" clk $end
$var reg 1 X" rst $end
$var reg 1 Y" wr_en $end
$var reg 16 Z" data_in[15:0] $end
$var reg 16 [" data_out[15:0] $end
$var reg 16 \" reg[15:0] $end
$upscope $end
$scope module reg2 $end
$var reg 1 ]" clk $end
$var reg 1 ^" rst $end
$var reg 1 _" wr_en $end
$var reg 16 `" data_in[15:0] $end
$var reg 16 a" data_out[15:0] $end
$var reg 16 b" reg[15:0] $end
$upscope $end
$scope module reg3 $end
$var reg 1 c" clk $end
$var reg 1 d" rst $end
$var reg 1 e" wr_en $end
$var reg 16 f" data_in[15:0] $end
$var reg 16 g" data_out[15:0] $end
$var reg 16 h" reg[15:0] $end
$upscope $end
$scope module reg4 $end
$var reg 1 i" clk $end
$var reg 1 j" rst $end
$var reg 1 k" wr_en $end
$var reg 16 l" data_in[15:0] $end
$var reg 16 m" data_out[15:0] $end
$var reg 16 n" reg[15:0] $end
$upscope $end
$scope module beg5 $end
$var reg 1 o" clk $end
$var reg 1 p" rst $end
$var reg 1 q" wr_en $end
$var reg 16 r" data_in[15:0] $end
$var reg 16 s" data_out[15:0] $end
$var reg 16 t" reg[15:0] $end
$upscope $end
$scope module beg6 $end
$var reg 1 u" clk $end
$var reg 1 v" rst $end
$var reg 1 w" wr_en $end
$var reg 16 x" data_in[15:0] $end
$var reg 16 y" data_out[15:0] $end
$var reg 16 z" reg[15:0] $end
$upscope $end
$scope module beg7 $end
$var reg 1 {" clk $end
$var reg 1 |" rst $end
$var reg 1 }" wr_en $end
$var reg 16 !# data_in[15:0] $end
$var reg 16 "# data_out[15:0] $end
$var reg 16 ## reg[15:0] $end
$upscope $end
$upscope $end
$scope module instruction_reg $end
$var reg 1 $# clk $end
$var reg 1 %# rst $end
$var reg 1 &# wr_en $end
$var reg 16 '# data_in[15:0] $end
$var reg 16 (# data_out[15:0] $end
$var reg 16 )# reg[15:0] $end
$upscope $end
$scope module accumulator $end
$var reg 1 *# clk $end
$var reg 1 +# rst $end
$var reg 1 ,# wr_en $end
$var reg 16 -# data_in[15:0] $end
$var reg 16 .# data_out[15:0] $end
$var reg 16 /# reg[15:0] $end
$upscope $end
$scope module proto_control_1 $end
$var reg 1 0# clk $end
$var reg 1 1# rst $end
$var reg 1 2# wr_en $end
$var reg 1 3# is_branch $end
$var reg 7 4# branch_address[6:0] $end
$var reg 2 5# estado[1:0] $end
$var reg 16 6# data_out[15:0] $end
$var reg 7 7# data_in_pc[6:0] $end
$var reg 7 8# data_out_pc[6:0] $end
$var reg 7 9# address_rom[6:0] $end
$var reg 16 :# data_out_rom[15:0] $end
$var reg 2 ;# estado_s[1:0] $end
$var reg 7 <# new_address[6:0] $end
$scope module pc $end
$var reg 1 =# clk $end
$var reg 1 ># rst $end
$var reg 1 ?# wr_en $end
$var reg 7 @# data_in[6:0] $end
$var reg 7 A# data_out[6:0] $end
$var reg 7 B# reg[6:0] $end
$upscope $end
$scope module rom_1 $end
$var reg 1 C# clk $end
$var reg 7 D# address[6:0] $end
$var reg 16 E# data[15:0] $end
$upscope $end
$upscope $end
$scope module control_unity_1 $end
$var reg 1 F# clk $end
$var reg 1 G# rst $end
$var reg 1 H# flag_zero_in $end
$var reg 1 I# flag_zero_out $end
$var reg 1 J# flag_overflow_in $end
$var reg 1 K# flag_overflow_out $end
$var reg 1 L# flag_carry_in $end
$var reg 1 M# flag_carry_out $end
$var reg 1 N# wr_enable_flags $end
$scope module flag_zero $end
$var reg 1 O# clk $end
$var reg 1 P# rst $end
$var reg 1 Q# wr_en $end
$var reg 1 R# data_in $end
$var reg 1 S# data_out $end
$var reg 1 T# reg $end
$upscope $end
$scope module flag_overflow $end
$var reg 1 U# clk $end
$var reg 1 V# rst $end
$var reg 1 W# wr_en $end
$var reg 1 X# data_in $end
$var reg 1 Y# data_out $end
$var reg 1 Z# reg $end
$upscope $end
$scope module flag_carry $end
$var reg 1 [# clk $end
$var reg 1 \# rst $end
$var reg 1 ]# wr_en $end
$var reg 1 ^# data_in $end
$var reg 1 _# data_out $end
$var reg 1 `# reg $end
$upscope $end
$upscope $end
$scope module three_state_machine_1 $end
$var reg 1 a# clk $end
$var reg 1 b# rst $end
$var reg 2 c# estado[1:0] $end
$var reg 2 d# estado_s[1:0] $end
$upscope $end
$upscope $end
$upscope $end
$enddefinitions $end
#0
bUU !
bUUUUUUUUUUUUUUUU "
bUUUUUUUUUUUUUUUU #
bUUUUUUUUUUUUUUUU $
U%
U&
bUUU '
bUUU (
bUUU )
bUUUUUUUUUUUUUUUU *
bUUUUUUUUUUUUUUUU +
U,
0-
0.
1/
b0000000000000000 0
U1
b0000000000000000 2
bUUUUUUUUUUUUUUUU 3
b0000000000000000 4
b0000000000000000 5
b0000000000000000 6
b0000000000000000 7
b0000000000000000 8
b0000000000000000 9
0:
1;
b00 <
bUUUUUUUUUUUUUUUU =
b0000000000000000 >
b0000000000000000 ?
b0000000000000000 @
b0000000000000000 A
bUUUUUUUUUUUUUUUU B
b0000000000000000 C
b0000000000000000 D
b0000000000000000 E
b0000000000000000 F
b0000000000000000 G
b0000000000000000 H
b0000000000000000 I
b0000000000000000 J
b0000000000000000 K
UL
b01 M
1N
0O
0P
b0000000000000000 Q
b0000000000000000 R
b0000000000000000 S
b000 T
b000 U
bUUU V
0W
b000000000 X
b0000000000000000 Y
bUUUUUUUUUUUUUUUU Z
b0000 [
1\
0]
b0000000000000000 ^
b0000000000000000 _
bUUUUUUUUUUUUUUUU `
0a
b0000000 b
Uc
Ud
0e
Uf
0g
Uh
0i
0j
b00 k
b01 l
b0000000000000000 m
b0000000000000000 n
b0000000000000000 o
1p
0q
0r
bUUUUUUUUUUUUUUUU s
b0000000000000000 t
b00000000000000000 u
b00000000000000000 v
b00000000000000000 w
b0000000000000000 x
b0000000000000000 y
b00000000000000000 z
b0000000000000000 {
b0000000000000000 |
b00000000000000000 }
b0000000000000000 !"
b0000000000000000 ""
b0000000000000000 #"
b0000000000000000 $"
b0000000000000000 %"
b0000000000000000 &"
bUUUUUUUUUUUUUUUU '"
b000 ("
bUUU )"
0*"
b000 +"
b0000000000000000 ,"
0-"
1."
b0000000000000000 /"
b0000000000000000 0"
b0000000000000000 1"
b0000000000000000 2"
b0000000000000000 3"
b0000000000000000 4"
b0000000000000000 5"
b0000000000000000 6"
b0000000000000000 7"
b0000000000000000 8"
b0000000000000000 9"
b0000000000000000 :"
b0000000000000000 ;"
b0000000000000000 <"
b0000000000000000 ="
b0000000000000000 >"
b0000000000000000 ?"
b0000000000000000 @"
b0000000000000000 A"
b0000000000000000 B"
b0000000000000000 C"
b0000000000000000 D"
b0000000000000000 E"
b0000000000000000 F"
b0000000000000000 G"
b0000000000000000 H"
0I"
0J"
0K"
0L"
0M"
0N"
0O"
0P"
0Q"
1R"
0S"
b0000000000000000 T"
b0000000000000000 U"
b0000000000000000 V"
0W"
1X"
0Y"
b0000000000000000 Z"
b0000000000000000 ["
b0000000000000000 \"
0]"
1^"
0_"
b0000000000000000 `"
b0000000000000000 a"
b0000000000000000 b"
0c"
1d"
0e"
b0000000000000000 f"
b0000000000000000 g"
b0000000000000000 h"
0i"
1j"
0k"
b0000000000000000 l"
b0000000000000000 m"
b0000000000000000 n"
0o"
1p"
0q"
b0000000000000000 r"
b0000000000000000 s"
b0000000000000000 t"
0u"
1v"
0w"
b0000000000000000 x"
b0000000000000000 y"
b0000000000000000 z"
0{"
1|"
0}"
b0000000000000000 !#
b0000000000000000 "#
b0000000000000000 ##
0$#
1%#
1&#
bUUUUUUUUUUUUUUUU '#
b0000000000000000 (#
b0000000000000000 )#
0*#
1+#
0,#
b0000000000000000 -#
b0000000000000000 .#
b0000000000000000 /#
00#
11#
U2#
03#
b0000000 4#
b00 5#
bUUUUUUUUUUUUUUUU 6#
b0000000 7#
b0000000 8#
b0000000 9#
bUUUUUUUUUUUUUUUU :#
b00 ;#
b0000001 <#
0=#
1>#
U?#
b0000000 @#
b0000000 A#
b0000000 B#
0C#
b0000000 D#
bUUUUUUUUUUUUUUUU E#
0F#
1G#
1H#
0I#
0J#
0K#
0L#
0M#
0N#
0O#
1P#
0Q#
1R#
0S#
0T#
0U#
1V#
0W#
0X#
0Y#
0Z#
0[#
1\#
0]#
0^#
0_#
0`#
0a#
1b#
b00 c#
b00 d#
#25000000
1.
1:
b0001011000000101 =
b0001011000000101 Z
b0001011000000101 `
1-"
1Q"
1W"
1]"
1c"
1i"
1o"
1u"
1{"
1$#
b0001011000000101 '#
1*#
10#
b0001011000000101 6#
b0001011000000101 :#
1=#
1C#
b0001011000000101 E#
1F#
1O#
1U#
1[#
1a#
#50000000
0.
0:
0-"
0Q"
0W"
0]"
0c"
0i"
0o"
0u"
0{"
0$#
0*#
00#
0=#
0C#
0F#
0O#
0U#
0[#
0a#
#75000000
1.
1:
1-"
1Q"
1W"
1]"
1c"
1i"
1o"
1u"
1{"
1$#
1*#
10#
1=#
1C#
1F#
1O#
1U#
1[#
1a#
#100000000
0.
0/
0:
0;
0-"
0."
0Q"
0R"
0W"
0X"
0]"
0^"
0c"
0d"
0i"
0j"
0o"
0p"
0u"
0v"
0{"
0|"
0$#
0%#
0*#
0+#
00#
01#
0=#
0>#
0C#
0F#
0G#
0O#
0P#
0U#
0V#
0[#
0\#
0a#
0b#
#125000000
1.
1:
b01 <
b0001011000000101 >
b0000000000000101 S
b011 T
1W
b000000101 X
b0001011000000101 Y
b0001 [
b0110000 b
b01 k
1*"
b011 +"
b0000000000000101 ,"
1-"
b0000000000000101 B"
b0000000000000101 C"
b0000000000000101 D"
b0000000000000101 E"
b0000000000000101 F"
b0000000000000101 G"
b0000000000000101 H"
1L"
1Q"
1W"
b0000000000000101 Z"
1]"
b0000000000000101 `"
1c"
1e"
b0000000000000101 f"
1i"
b0000000000000101 l"
1o"
b0000000000000101 r"
1u"
b0000000000000101 x"
1{"
b0000000000000101 !#
1$#
b0001011000000101 (#
b0001011000000101 )#
1*#
10#
b0110000 4#
b01 5#
b01 ;#
1=#
1C#
1F#
1O#
1U#
1[#
1a#
b01 c#
b01 d#
#150000000
0.
0:
0-"
0Q"
0W"
0]"
0c"
0i"
0o"
0u"
0{"
0$#
0*#
00#
0=#
0C#
0F#
0O#
0U#
0[#
0a#
#175000000
1.
b0000000000000101 5
1:
b10 <
b0000000000000101 D
0W
1c
b10 k
0*"
1-"
b0000000000000101 4"
b0000000000000101 <"
0L"
1Q"
1W"
1]"
1c"
0e"
b0000000000000101 g"
b0000000000000101 h"
1i"
1o"
1u"
1{"
1$#
1*#
10#
12#
b10 5#
b0000001 7#
b10 ;#
1=#
1?#
b0000001 @#
1C#
1F#
1O#
1U#
1[#
1a#
b10 c#
b10 d#
#200000000
0.
0:
0-"
0Q"
0W"
0]"
0c"
0i"
0o"
0u"
0{"
0$#
0*#
00#
0=#
0C#
0F#
0O#
0U#
0[#
0a#
#225000000
1.
1:
b00 <
b00 k
1-"
1Q"
1W"
1]"
1c"
1i"
1o"
1u"
1{"
1$#
1*#
10#
b00 5#
b0000001 8#
b0000001 9#
b00 ;#
b0000010 <#
1=#
b0000001 A#
b0000001 B#
1C#
b0000001 D#
1F#
1O#
1U#
1[#
1a#
b00 c#
b00 d#
#250000000
0.
0:
0-"
0Q"
0W"
0]"
0c"
0i"
0o"
0u"
0{"
0$#
0*#
00#
0=#
0C#
0F#
0O#
0U#
0[#
0a#
#275000000
1.
1:
b01 <
b0001100000001000 =
1W
b0001100000001000 Z
b0001100000001000 `
b01 k
1*"
1-"
1L"
1Q"
1W"
1]"
1c"
1e"
1i"
1o"
1u"
1{"
1$#
b0001100000001000 '#
1*#
10#
b01 5#
b0001100000001000 6#
b0001100000001000 :#
b01 ;#
1=#
1C#
b0001100000001000 E#
1F#
1O#
1U#
1[#
1a#
b01 c#
b01 d#
#300000000
0.
0:
0-"
0Q"
0W"
0]"
0c"
0i"
0o"
0u"
0{"
0$#
0*#
00#
0=#
0C#
0F#
0O#
0U#
0[#
0a#
#325000000
1.
1:
b10 <
b0001100000001000 >
b0000000000001000 S
b100 T
0W
b000001000 X
b0001100000001000 Y
b1000000 b
b10 k
0*"
b100 +"
b0000000000001000 ,"
1-"
b0000000000001000 B"
b0000000000001000 C"
b0000000000001000 D"
b0000000000001000 E"
b0000000000001000 F"
b0000000000001000 G"
b0000000000001000 H"
0L"
1Q"
1W"
b0000000000001000 Z"
1]"
b0000000000001000 `"
1c"
0e"
b0000000000001000 f"
1i"
b0000000000001000 l"
1o"
b0000000000001000 r"
1u"
b0000000000001000 x"
1{"
b0000000000001000 !#
1$#
b0001100000001000 (#
b0001100000001000 )#
1*#
10#
b1000000 4#
b10 5#
b0000010 7#
b10 ;#
1=#
b0000010 @#
1C#
1F#
1O#
1U#
1[#
1a#
b10 c#
b10 d#
#350000000
0.
0:
0-"
0Q"
0W"
0]"
0c"
0i"
0o"
0u"
0{"
0$#
0*#
00#
0=#
0C#
0F#
0O#
0U#
0[#
0a#
#375000000
1.
1:
b00 <
b00 k
1-"
1Q"
1W"
1]"
1c"
1i"
1o"
1u"
1{"
1$#
1*#
10#
b00 5#
b0000010 8#
b0000010 9#
b00 ;#
b0000011 <#
1=#
b0000010 A#
b0000010 B#
1C#
b0000010 D#
1F#
1O#
1U#
1[#
1a#
b00 c#
b00 d#
#400000000
0.
0:
0-"
0Q"
0W"
0]"
0c"
0i"
0o"
0u"
0{"
0$#
0*#
00#
0=#
0C#
0F#
0O#
0U#
0[#
0a#
#425000000
1.
1:
b01 <
b0110000000000000 =
1W
b0110000000000000 Z
b0110000000000000 `
b01 k
1*"
1-"
1M"
1Q"
1W"
1]"
1c"
1i"
1k"
1o"
1u"
1{"
1$#
b0110000000000000 '#
1*#
10#
b01 5#
b0110000000000000 6#
b0110000000000000 :#
b01 ;#
1=#
1C#
b0110000000000000 E#
1F#
1O#
1U#
1[#
1a#
b01 c#
b01 d#
#450000000
0.
0:
0-"
0Q"
0W"
0]"
0c"
0i"
0o"
0u"
0{"
0$#
0*#
00#
0=#
0C#
0F#
0O#
0U#
0[#
0a#
#475000000
1.
b0000000000001000 6
1:
b10 <
b0110000000000000 >
b0000000000001000 E
b0000000000000000 S
b000 T
0W
b000000000 X
b0110000000000000 Y
b0110 [
1]
b0000000 b
b10 k
0*"
b000 +"
b0000000000000000 ,"
1-"
b0000000000001000 5"
b0000000000001000 ="
b0000000000000000 B"
b0000000000000000 C"
b0000000000000000 D"
b0000000000000000 E"
b0000000000000000 F"
b0000000000000000 G"
b0000000000000000 H"
0M"
1Q"
1W"
b0000000000000000 Z"
1]"
b0000000000000000 `"
1c"
b0000000000000000 f"
1i"
0k"
b0000000000000000 l"
b0000000000001000 m"
b0000000000001000 n"
1o"
b0000000000000000 r"
1u"
b0000000000000000 x"
1{"
b0000000000000000 !#
1$#
b0110000000000000 (#
b0110000000000000 )#
1*#
1,#
10#
b0000000 4#
b10 5#
b0000011 7#
b10 ;#
1=#
b0000011 @#
1C#
1F#
1O#
1U#
1[#
1a#
b10 c#
b10 d#
#500000000
0.
0:
0-"
0Q"
0W"
0]"
0c"
0i"
0o"
0u"
0{"
0$#
0*#
00#
0=#
0C#
0F#
0O#
0U#
0[#
0a#
#525000000
1.
1:
b00 <
0]
b00 k
1-"
1Q"
1W"
1]"
1c"
1i"
1o"
1u"
1{"
1$#
1*#
0,#
10#
b00 5#
b0000011 8#
b0000011 9#
b00 ;#
b0000100 <#
1=#
b0000011 A#
b0000011 B#
1C#
b0000011 D#
1F#
1O#
1U#
1[#
1a#
b00 c#
b00 d#
#550000000
0.
0:
0-"
0Q"
0W"
0]"
0c"
0i"
0o"
0u"
0{"
0$#
0*#
00#
0=#
0C#
0F#
0O#
0U#
0[#
0a#
#575000000
1.
1:
b01 <
b0010000011000000 =
b0010000011000000 Z
b0010000011000000 `
b01 k
1-"
1Q"
1W"
1]"
1c"
1i"
1o"
1u"
1{"
1$#
b0010000011000000 '#
1*#
10#
b01 5#
b0010000011000000 6#
b0010000011000000 :#
b01 ;#
1=#
1C#
b0010000011000000 E#
1F#
1O#
1U#
1[#
1a#
b01 c#
b01 d#
#600000000
0.
0:
0-"
0Q"
0W"
0]"
0c"
0i"
0o"
0u"
0{"
0$#
0*#
00#
0=#
0C#
0F#
0O#
0U#
0[#
0a#
#625000000
1.
b0000000000000101 0
1:
b10 <
b0010000011000000 >
b0000000000000101 @
b0000000000000101 J
b0000000000000101 K
b00 M
0N
b0000000000000101 Q
b0000000011000000 S
b011 U
b011000000 X
b0010000011000000 Y
b0010 [
1]
b0000000000000101 ^
b0000110 b
1j
b10 k
b00 l
b0000000000000101 n
b0000000000000101 o
0p
b0000000000000X0X t
b11111111111111011 u
b00000000000000101 v
b00000000000000101 w
b0000000000000101 y
b00000000000000101 z
b0000000000000101 |
b11111111111111011 }
b0000000000000101 ""
b0000000000000X0X #"
b0000000000000101 %"
b0000000000000X0X &"
b011 ("
b0000000011000000 ,"
1-"
b0000000000000101 /"
b0000000011000000 B"
b0000000011000000 C"
b0000000011000000 D"
b0000000011000000 E"
b0000000011000000 F"
b0000000011000000 G"
b0000000011000000 H"
1Q"
1W"
b0000000011000000 Z"
1]"
b0000000011000000 `"
1c"
b0000000011000000 f"
1i"
b0000000011000000 l"
1o"
b0000000011000000 r"
1u"
b0000000011000000 x"
1{"
b0000000011000000 !#
1$#
b0010000011000000 (#
b0010000011000000 )#
1*#
1,#
b0000000000000101 -#
10#
b0000110 4#
b10 5#
b0000100 7#
b10 ;#
1=#
b0000100 @#
1C#
1F#
0H#
1N#
1O#
1Q#
0R#
1U#
1W#
1[#
1]#
1a#
b10 c#
b10 d#
#650000000
0.
0:
0-"
0Q"
0W"
0]"
0c"
0i"
0o"
0u"
0{"
0$#
0*#
00#
0=#
0C#
0F#
0O#
0U#
0[#
0a#
#675000000
1.
b0000000000001010 0
1:
b00 <
b0000000000000101 ?
b0000000000001010 @
b0000000000000101 I
b0000000000001010 K
0]
b0000000000001010 ^
b0000000000000101 _
0j
b00 k
b0000000000000101 m
b0000000000001010 o
b00000000000000000 u
b00000000000001010 v
b00000000000001010 w
b0000000000000101 x
b00000000000001010 z
b0000000000000101 {
b00000000000000000 }
b0000000000000101 !"
b0000000000000X0X #"
b0000000000000101 $"
b0000000000000X0X &"
1-"
1Q"
1W"
1]"
1c"
1i"
1o"
1u"
1{"
1$#
1*#
0,#
b0000000000001010 -#
b0000000000000101 .#
b0000000000000101 /#
10#
b00 5#
b0000100 8#
b0000100 9#
b00 ;#
b0000101 <#
1=#
b0000100 A#
b0000100 B#
1C#
b0000100 D#
1F#
0N#
1O#
0Q#
1U#
0W#
1[#
0]#
1a#
b00 c#
b00 d#
#700000000
0.
0:
0-"
0Q"
0W"
0]"
0c"
0i"
0o"
0u"
0{"
0$#
0*#
00#
0=#
0C#
0F#
0O#
0U#
0[#
0a#
#725000000
1.
1:
b01 <
b0010000100000000 =
b0010000100000000 Z
b0010000100000000 `
b01 k
1-"
1Q"
1W"
1]"
1c"
1i"
1o"
1u"
1{"
1$#
b0010000100000000 '#
1*#
10#
b01 5#
b0010000100000000 6#
b0010000100000000 :#
b01 ;#
1=#
1C#
b0010000100000000 E#
1F#
1O#
1U#
1[#
1a#
b01 c#
b01 d#
#750000000
0.
0:
0-"
0Q"
0W"
0]"
0c"
0i"
0o"
0u"
0{"
0$#
0*#
00#
0=#
0C#
0F#
0O#
0U#
0[#
0a#
#775000000
1.
b0000000000001101 0
1:
b10 <
b0010000100000000 >
b0000000000001101 @
b0000000000001000 J
b0000000000001101 K
b0000000000001000 Q
b0000000100000000 S
b100 U
b100000000 X
b0010000100000000 Y
1]
b0000000000001101 ^
b0001000 b
1j
b10 k
b0000000000001000 n
b0000000000001101 o
b000000000000XX0X t
b11111111111111101 u
b00000000000001101 v
b00000000000001101 w
b0000000000001000 y
b00000000000001101 z
b0000000000001000 |
b11111111111111101 }
b0000000000001000 ""
b000000000000XX0X #"
b0000000000001000 %"
b000000000000XX0X &"
b100 ("
b0000000100000000 ,"
1-"
b0000000000001000 /"
b0000000100000000 B"
b0000000100000000 C"
b0000000100000000 D"
b0000000100000000 E"
b0000000100000000 F"
b0000000100000000 G"
b0000000100000000 H"
1Q"
1W"
b0000000100000000 Z"
1]"
b0000000100000000 `"
1c"
b0000000100000000 f"
1i"
b0000000100000000 l"
1o"
b0000000100000000 r"
1u"
b0000000100000000 x"
1{"
b0000000100000000 !#
1$#
b0010000100000000 (#
b0010000100000000 )#
1*#
1,#
b0000000000001101 -#
10#
b0001000 4#
b10 5#
b0000101 7#
b10 ;#
1=#
b0000101 @#
1C#
1F#
1N#
1O#
1Q#
1U#
1W#
1[#
1]#
1a#
b10 c#
b10 d#
#800000000
0.
0:
0-"
0Q"
0W"
0]"
0c"
0i"
0o"
0u"
0{"
0$#
0*#
00#
0=#
0C#
0F#
0O#
0U#
0[#
0a#
#825000000
1.
b0000000000010101 0
1:
b00 <
b0000000000001101 ?
b0000000000010101 @
b0000000000001101 I
b0000000000010101 K
0]
b0000000000010101 ^
b0000000000001101 _
0j
b00 k
b0000000000001101 m
b0000000000010101 o
b00000000000000101 u
b00000000000010101 v
b00000000000010101 w
b0000000000001101 x
b00000000000010101 z
b0000000000001101 {
b00000000000000101 }
b0000000000001101 !"
b000000000000XX0X #"
b0000000000001101 $"
b000000000000XX0X &"
1-"
1Q"
1W"
1]"
1c"
1i"
1o"
1u"
1{"
1$#
1*#
0,#
b0000000000010101 -#
b0000000000001101 .#
b0000000000001101 /#
10#
b00 5#
b0000101 8#
b0000101 9#
b00 ;#
b0000110 <#
1=#
b0000101 A#
b0000101 B#
1C#
b0000101 D#
1F#
0N#
1O#
0Q#
1U#
0W#
1[#
0]#
1a#
b00 c#
b00 d#
#850000000
0.
0:
0-"
0Q"
0W"
0]"
0c"
0i"
0o"
0u"
0{"
0$#
0*#
00#
0=#
0C#
0F#
0O#
0U#
0[#
0a#
#875000000
1.
1:
b01 <
b0111101000000000 =
b0111101000000000 Z
b0111101000000000 `
b01 k
1-"
1Q"
1W"
1]"
1c"
1i"
1o"
1u"
1{"
1$#
b0111101000000000 '#
1*#
10#
b01 5#
b0111101000000000 6#
b0111101000000000 :#
b01 ;#
1=#
1C#
b0111101000000000 E#
1F#
1O#
1U#
1[#
1a#
b01 c#
b01 d#
#900000000
0.
0:
0-"
0Q"
0W"
0]"
0c"
0i"
0o"
0u"
0{"
0$#
0*#
00#
0=#
0C#
0F#
0O#
0U#
0[#
0a#
