processador_tb.vcd
$date
  Thu Jun 06 22:58:42 2024
$end
$version
  GHDL v0
$end
$timescale
  1 fs
$end
$scope module standard $end
$upscope $end
$scope module std_logic_1164 $end
$upscope $end
$scope module numeric_std $end
$upscope $end
$scope module processador_tb $end
$var reg 2 ! operation[1:0] $end
$var reg 16 " in_a[15:0] $end
$var reg 16 # in_b[15:0] $end
$var reg 16 $ ulaout[15:0] $end
$var reg 1 % is_zero $end
$var reg 1 & mux_2 $end
$var reg 3 ' read_0[2:0] $end
$var reg 3 ( read_1[2:0] $end
$var reg 3 ) write_register[2:0] $end
$var reg 16 * read_data1[15:0] $end
$var reg 16 + cte[15:0] $end
$var reg 1 , wr_en $end
$var reg 1 - finished $end
$var reg 1 . clk $end
$var reg 1 / rst $end
$var reg 16 0 ula_out[15:0] $end
$var reg 1 1 zero_flag $end
$var reg 16 2 r0[15:0] $end
$var reg 16 3 r1[15:0] $end
$var reg 16 4 r2[15:0] $end
$var reg 16 5 r3[15:0] $end
$var reg 16 6 r4[15:0] $end
$var reg 16 7 r5[15:0] $end
$var reg 16 8 r6[15:0] $end
$var reg 16 9 r7[15:0] $end
$scope module tp_lvl $end
$var reg 1 : clk $end
$var reg 1 ; rst $end
$var reg 2 < estado_out[1:0] $end
$var reg 16 = pc_out[15:0] $end
$var reg 16 > instruction_reg_out[15:0] $end
$var reg 16 ? acumulador_out[15:0] $end
$var reg 16 @ ula_out[15:0] $end
$var reg 16 A r0[15:0] $end
$var reg 16 B r1[15:0] $end
$var reg 16 C r2[15:0] $end
$var reg 16 D r3[15:0] $end
$var reg 16 E r4[15:0] $end
$var reg 16 F r5[15:0] $end
$var reg 16 G r6[15:0] $end
$var reg 16 H r7[15:0] $end
$var reg 16 I in_a[15:0] $end
$var reg 16 J in_b[15:0] $end
$var reg 16 K ulaout_s[15:0] $end
$var reg 1 L is_zero $end
$var reg 2 M operation_ula[1:0] $end
$var reg 1 N zero_flag_s $end
$var reg 1 O overflow_flag_s $end
$var reg 1 P carry_flag_s $end
$var reg 16 Q rega_data_out[15:0] $end
$var reg 16 R regb_data_out[15:0] $end
$var reg 16 S write_data_s[15:0] $end
$var reg 3 T write_register_s[2:0] $end
$var reg 3 U ra_address[2:0] $end
$var reg 3 V rb_address[2:0] $end
$var reg 1 W wr_en_s $end
$var reg 9 X const[8:0] $end
$var reg 16 Y data_out_instruction_reg[15:0] $end
$var reg 16 Z data_in_instruction_reg[15:0] $end
$var reg 4 [ opcode[3:0] $end
$var reg 1 \ wr_en_instruction_reg $end
$var reg 1 ] wr_en_accumulator $end
$var reg 16 ^ data_in_accumulator[15:0] $end
$var reg 16 _ data_out_accumulator[15:0] $end
$var reg 16 ` data_out_proto_control[15:0] $end
$var reg 1 a is_branch_s $end
$var reg 1 b is_relative_branch_s $end
$var reg 7 c branch_address_s[6:0] $end
$var reg 1 d wr_en_proto_control $end
$var reg 1 e flag_zero_in_ctr $end
$var reg 1 f flag_zero_out_ctr $end
$var reg 1 g flag_overflow_in_ctr $end
$var reg 1 h flag_overflow_out_ctr $end
$var reg 1 i flag_carry_in_ctr $end
$var reg 1 j flag_carry_out_ctr $end
$var reg 1 k wr_en_flags_ctr $end
$var reg 2 l estado_s[1:0] $end
$scope module ula_1 $end
$var reg 2 m operation[1:0] $end
$var reg 16 n in_a[15:0] $end
$var reg 16 o in_b[15:0] $end
$var reg 16 p ulaout[15:0] $end
$var reg 1 q zero_flag $end
$var reg 1 r overflow_flag $end
$var reg 1 s carry_flag $end
$var reg 16 t result_and[15:0] $end
$var reg 16 u result_xor[15:0] $end
$var reg 17 v result_subtracter[16:0] $end
$var reg 17 w result_adder[16:0] $end
$var reg 17 x final_result[16:0] $end
$scope module adder1 $end
$var reg 16 y in_a[15:0] $end
$var reg 16 z in_b[15:0] $end
$var reg 17 { result[16:0] $end
$upscope $end
$scope module subtracter1 $end
$var reg 16 | in_a[15:0] $end
$var reg 16 } in_b[15:0] $end
$var reg 17 !" result[16:0] $end
$upscope $end
$scope module and_op1 $end
$upscope $end
$scope module xor_op1 $end
$upscope $end
$upscope $end
$scope module reg_bd_1 $end
$var reg 3 "" read_r0[2:0] $end
$var reg 3 #" read_r1[2:0] $end
$var reg 1 $" wr_en $end
$var reg 3 %" write_register[2:0] $end
$var reg 16 &" write_data[15:0] $end
$var reg 1 '" clk $end
$var reg 1 (" rst $end
$var reg 16 )" read_data0[15:0] $end
$var reg 16 *" read_data1[15:0] $end
$var reg 16 +" r0[15:0] $end
$var reg 16 ," r1[15:0] $end
$var reg 16 -" r2[15:0] $end
$var reg 16 ." r3[15:0] $end
$var reg 16 /" r4[15:0] $end
$var reg 16 0" r5[15:0] $end
$var reg 16 1" r6[15:0] $end
$var reg 16 2" r7[15:0] $end
$var reg 16 3" reg0_out[15:0] $end
$var reg 16 4" reg1_out[15:0] $end
$var reg 16 5" reg2_out[15:0] $end
$var reg 16 6" reg3_out[15:0] $end
$var reg 16 7" reg4_out[15:0] $end
$var reg 16 8" reg5_out[15:0] $end
$var reg 16 9" reg6_out[15:0] $end
$var reg 16 :" reg7_out[15:0] $end
$var reg 16 ;" reg0_in[15:0] $end
$var reg 16 <" reg1_in[15:0] $end
$var reg 16 =" reg2_in[15:0] $end
$var reg 16 >" reg3_in[15:0] $end
$var reg 16 ?" reg4_in[15:0] $end
$var reg 16 @" reg5_in[15:0] $end
$var reg 16 A" reg6_in[15:0] $end
$var reg 16 B" reg7_in[15:0] $end
$var reg 1 C" wr_en0 $end
$var reg 1 D" wr_en1 $end
$var reg 1 E" wr_en2 $end
$var reg 1 F" wr_en3 $end
$var reg 1 G" wr_en4 $end
$var reg 1 H" wr_en5 $end
$var reg 1 I" wr_en6 $end
$var reg 1 J" wr_en7 $end
$scope module reg0 $end
$var reg 1 K" clk $end
$var reg 1 L" rst $end
$var reg 1 M" wr_en $end
$var reg 16 N" data_in[15:0] $end
$var reg 16 O" data_out[15:0] $end
$var reg 16 P" reg[15:0] $end
$upscope $end
$scope module reg1 $end
$var reg 1 Q" clk $end
$var reg 1 R" rst $end
$var reg 1 S" wr_en $end
$var reg 16 T" data_in[15:0] $end
$var reg 16 U" data_out[15:0] $end
$var reg 16 V" reg[15:0] $end
$upscope $end
$scope module reg2 $end
$var reg 1 W" clk $end
$var reg 1 X" rst $end
$var reg 1 Y" wr_en $end
$var reg 16 Z" data_in[15:0] $end
$var reg 16 [" data_out[15:0] $end
$var reg 16 \" reg[15:0] $end
$upscope $end
$scope module reg3 $end
$var reg 1 ]" clk $end
$var reg 1 ^" rst $end
$var reg 1 _" wr_en $end
$var reg 16 `" data_in[15:0] $end
$var reg 16 a" data_out[15:0] $end
$var reg 16 b" reg[15:0] $end
$upscope $end
$scope module reg4 $end
$var reg 1 c" clk $end
$var reg 1 d" rst $end
$var reg 1 e" wr_en $end
$var reg 16 f" data_in[15:0] $end
$var reg 16 g" data_out[15:0] $end
$var reg 16 h" reg[15:0] $end
$upscope $end
$scope module beg5 $end
$var reg 1 i" clk $end
$var reg 1 j" rst $end
$var reg 1 k" wr_en $end
$var reg 16 l" data_in[15:0] $end
$var reg 16 m" data_out[15:0] $end
$var reg 16 n" reg[15:0] $end
$upscope $end
$scope module beg6 $end
$var reg 1 o" clk $end
$var reg 1 p" rst $end
$var reg 1 q" wr_en $end
$var reg 16 r" data_in[15:0] $end
$var reg 16 s" data_out[15:0] $end
$var reg 16 t" reg[15:0] $end
$upscope $end
$scope module beg7 $end
$var reg 1 u" clk $end
$var reg 1 v" rst $end
$var reg 1 w" wr_en $end
$var reg 16 x" data_in[15:0] $end
$var reg 16 y" data_out[15:0] $end
$var reg 16 z" reg[15:0] $end
$upscope $end
$upscope $end
$scope module instruction_reg $end
$var reg 1 {" clk $end
$var reg 1 |" rst $end
$var reg 1 }" wr_en $end
$var reg 16 !# data_in[15:0] $end
$var reg 16 "# data_out[15:0] $end
$var reg 16 ## reg[15:0] $end
$upscope $end
$scope module accumulator $end
$var reg 1 $# clk $end
$var reg 1 %# rst $end
$var reg 1 &# wr_en $end
$var reg 16 '# data_in[15:0] $end
$var reg 16 (# data_out[15:0] $end
$var reg 16 )# reg[15:0] $end
$upscope $end
$scope module proto_control_1 $end
$var reg 1 *# clk $end
$var reg 1 +# rst $end
$var reg 1 ,# wr_en $end
$var reg 1 -# is_branch $end
$var reg 1 .# is_relative_branch $end
$var reg 7 /# branch_address[6:0] $end
$var reg 2 0# estado[1:0] $end
$var reg 16 1# data_out[15:0] $end
$var reg 7 2# data_in_pc[6:0] $end
$var reg 7 3# data_out_pc[6:0] $end
$var reg 7 4# address_rom[6:0] $end
$var reg 16 5# data_out_rom[15:0] $end
$var reg 2 6# estado_s[1:0] $end
$var reg 7 7# new_address[6:0] $end
$scope module pc $end
$var reg 1 8# clk $end
$var reg 1 9# rst $end
$var reg 1 :# wr_en $end
$var reg 7 ;# data_in[6:0] $end
$var reg 7 <# data_out[6:0] $end
$var reg 7 =# reg[6:0] $end
$upscope $end
$scope module rom_1 $end
$var reg 1 ># clk $end
$var reg 7 ?# address[6:0] $end
$var reg 16 @# data[15:0] $end
$upscope $end
$upscope $end
$scope module control_unity_1 $end
$var reg 1 A# clk $end
$var reg 1 B# rst $end
$var reg 1 C# flag_zero_in $end
$var reg 1 D# flag_zero_out $end
$var reg 1 E# flag_overflow_in $end
$var reg 1 F# flag_overflow_out $end
$var reg 1 G# flag_carry_in $end
$var reg 1 H# flag_carry_out $end
$var reg 1 I# wr_enable_flags $end
$var reg 1 J# not_clk $end
$scope module flag_zero $end
$var reg 1 K# clk $end
$var reg 1 L# rst $end
$var reg 1 M# wr_en $end
$var reg 1 N# data_in $end
$var reg 1 O# data_out $end
$var reg 1 P# reg $end
$upscope $end
$scope module flag_overflow $end
$var reg 1 Q# clk $end
$var reg 1 R# rst $end
$var reg 1 S# wr_en $end
$var reg 1 T# data_in $end
$var reg 1 U# data_out $end
$var reg 1 V# reg $end
$upscope $end
$scope module flag_carry $end
$var reg 1 W# clk $end
$var reg 1 X# rst $end
$var reg 1 Y# wr_en $end
$var reg 1 Z# data_in $end
$var reg 1 [# data_out $end
$var reg 1 \# reg $end
$upscope $end
$upscope $end
$scope module three_state_machine_1 $end
$var reg 1 ]# clk $end
$var reg 1 ^# rst $end
$var reg 2 _# estado[1:0] $end
$var reg 2 `# estado_s[1:0] $end
$upscope $end
$upscope $end
$upscope $end
$enddefinitions $end
#0
bUU !
bUUUUUUUUUUUUUUUU "
bUUUUUUUUUUUUUUUU #
bUUUUUUUUUUUUUUUU $
U%
U&
bUUU '
bUUU (
bUUU )
bUUUUUUUUUUUUUUUU *
bUUUUUUUUUUUUUUUU +
U,
0-
0.
1/
b0000000000000000 0
U1
b0000000000000000 2
bUUUUUUUUUUUUUUUU 3
b0000000000000000 4
b0000000000000000 5
b0000000000000000 6
b0000000000000000 7
b0000000000000000 8
b0000000000000000 9
0:
1;
b00 <
bUUUUUUUUUUUUUUUU =
b0000000000000000 >
b0000000000000000 ?
b0000000000000000 @
b0000000000000000 A
bUUUUUUUUUUUUUUUU B
b0000000000000000 C
b0000000000000000 D
b0000000000000000 E
b0000000000000000 F
b0000000000000000 G
b0000000000000000 H
b0000000000000000 I
b0000000000000000 J
b0000000000000000 K
UL
b01 M
1N
0O
0P
b0000000000000000 Q
b0000000000000000 R
b0000000000000000 S
b000 T
b000 U
bUUU V
0W
b000000000 X
b0000000000000000 Y
bUUUUUUUUUUUUUUUU Z
b0000 [
1\
0]
b0000000000000000 ^
b0000000000000000 _
bUUUUUUUUUUUUUUUU `
0a
0b
b0000000 c
Ud
Ue
0f
Ug
0h
Ui
0j
0k
b00 l
b01 m
b0000000000000000 n
b0000000000000000 o
b0000000000000000 p
1q
0r
0s
bUUUUUUUUUUUUUUUU t
bUUUUUUUUUUUUUUUU u
b00000000000000000 v
b00000000000000000 w
b00000000000000000 x
b0000000000000000 y
b0000000000000000 z
b00000000000000000 {
b0000000000000000 |
b0000000000000000 }
b00000000000000000 !"
b000 ""
bUUU #"
0$"
b000 %"
b0000000000000000 &"
0'"
1("
b0000000000000000 )"
b0000000000000000 *"
b0000000000000000 +"
b0000000000000000 ,"
b0000000000000000 -"
b0000000000000000 ."
b0000000000000000 /"
b0000000000000000 0"
b0000000000000000 1"
b0000000000000000 2"
b0000000000000000 3"
b0000000000000000 4"
b0000000000000000 5"
b0000000000000000 6"
b0000000000000000 7"
b0000000000000000 8"
b0000000000000000 9"
b0000000000000000 :"
b0000000000000000 ;"
b0000000000000000 <"
b0000000000000000 ="
b0000000000000000 >"
b0000000000000000 ?"
b0000000000000000 @"
b0000000000000000 A"
b0000000000000000 B"
0C"
0D"
0E"
0F"
0G"
0H"
0I"
0J"
0K"
1L"
0M"
b0000000000000000 N"
b0000000000000000 O"
b0000000000000000 P"
0Q"
1R"
0S"
b0000000000000000 T"
b0000000000000000 U"
b0000000000000000 V"
0W"
1X"
0Y"
b0000000000000000 Z"
b0000000000000000 ["
b0000000000000000 \"
0]"
1^"
0_"
b0000000000000000 `"
b0000000000000000 a"
b0000000000000000 b"
0c"
1d"
0e"
b0000000000000000 f"
b0000000000000000 g"
b0000000000000000 h"
0i"
1j"
0k"
b0000000000000000 l"
b0000000000000000 m"
b0000000000000000 n"
0o"
1p"
0q"
b0000000000000000 r"
b0000000000000000 s"
b0000000000000000 t"
0u"
1v"
0w"
b0000000000000000 x"
b0000000000000000 y"
b0000000000000000 z"
0{"
1|"
1}"
bUUUUUUUUUUUUUUUU !#
b0000000000000000 "#
b0000000000000000 ##
0$#
1%#
0&#
b0000000000000000 '#
b0000000000000000 (#
b0000000000000000 )#
0*#
1+#
U,#
0-#
0.#
b0000000 /#
b00 0#
bUUUUUUUUUUUUUUUU 1#
b0000000 2#
b0000000 3#
b0000000 4#
bUUUUUUUUUUUUUUUU 5#
b00 6#
b0000001 7#
08#
19#
U:#
b0000000 ;#
b0000000 <#
b0000000 =#
0>#
b0000000 ?#
bUUUUUUUUUUUUUUUU @#
0A#
1B#
1C#
0D#
0E#
0F#
0G#
0H#
0I#
1J#
1K#
1L#
0M#
1N#
0O#
0P#
1Q#
1R#
0S#
0T#
0U#
0V#
1W#
1X#
0Y#
0Z#
0[#
0\#
0]#
1^#
b00 _#
b00 `#
#25000000
1.
1:
b0001011000000000 =
b0001011000000000 Z
b0001011000000000 `
1'"
1K"
1Q"
1W"
1]"
1c"
1i"
1o"
1u"
1{"
b0001011000000000 !#
1$#
1*#
b0001011000000000 1#
b0001011000000000 5#
18#
1>#
b0001011000000000 @#
1A#
0J#
0K#
0Q#
0W#
1]#
#50000000
0.
0:
0'"
0K"
0Q"
0W"
0]"
0c"
0i"
0o"
0u"
0{"
0$#
0*#
08#
0>#
0A#
1J#
1K#
1Q#
1W#
0]#
#75000000
1.
1:
1'"
1K"
1Q"
1W"
1]"
1c"
1i"
1o"
1u"
1{"
1$#
1*#
18#
1>#
1A#
0J#
0K#
0Q#
0W#
1]#
#100000000
0.
0/
0:
0;
0'"
0("
0K"
0L"
0Q"
0R"
0W"
0X"
0]"
0^"
0c"
0d"
0i"
0j"
0o"
0p"
0u"
0v"
0{"
0|"
0$#
0%#
0*#
0+#
08#
09#
0>#
0A#
0B#
1J#
1K#
0L#
1Q#
0R#
1W#
0X#
0]#
0^#
#125000000
1.
1:
b01 <
b0001011000000000 >
b011 T
1W
b0001011000000000 Y
b0001 [
b0110000 c
b01 l
1$"
b011 %"
1'"
1F"
1K"
1Q"
1W"
1]"
1_"
1c"
1i"
1o"
1u"
1{"
b0001011000000000 "#
b0001011000000000 ##
1$#
1*#
b0110000 /#
b01 0#
b01 6#
18#
1>#
1A#
0J#
0K#
0Q#
0W#
1]#
b01 _#
b01 `#
#150000000
0.
0:
0'"
0K"
0Q"
0W"
0]"
0c"
0i"
0o"
0u"
0{"
0$#
0*#
08#
0>#
0A#
1J#
1K#
1Q#
1W#
0]#
#175000000
1.
1:
b10 <
0W
1d
b10 l
0$"
1'"
0F"
1K"
1Q"
1W"
1]"
0_"
1c"
1i"
1o"
1u"
1{"
1$#
1*#
1,#
b10 0#
b0000001 2#
b10 6#
18#
1:#
b0000001 ;#
1>#
1A#
0J#
0K#
0Q#
0W#
1]#
b10 _#
b10 `#
#200000000
0.
0:
0'"
0K"
0Q"
0W"
0]"
0c"
0i"
0o"
0u"
0{"
0$#
0*#
08#
0>#
0A#
1J#
1K#
1Q#
1W#
0]#
#225000000
1.
1:
b00 <
b00 l
1'"
1K"
1Q"
1W"
1]"
1c"
1i"
1o"
1u"
1{"
1$#
1*#
b00 0#
b0000001 3#
b0000001 4#
b00 6#
b0000010 7#
18#
b0000001 <#
b0000001 =#
1>#
b0000001 ?#
1A#
0J#
0K#
0Q#
0W#
1]#
b00 _#
b00 `#
#250000000
0.
0:
0'"
0K"
0Q"
0W"
0]"
0c"
0i"
0o"
0u"
0{"
0$#
0*#
08#
0>#
0A#
1J#
1K#
1Q#
1W#
0]#
#275000000
1.
1:
b01 <
b0001100000000000 =
1W
b0001100000000000 Z
b0001100000000000 `
b01 l
1$"
1'"
1F"
1K"
1Q"
1W"
1]"
1_"
1c"
1i"
1o"
1u"
1{"
b0001100000000000 !#
1$#
1*#
b01 0#
b0001100000000000 1#
b0001100000000000 5#
b01 6#
18#
1>#
b0001100000000000 @#
1A#
0J#
0K#
0Q#
0W#
1]#
b01 _#
b01 `#
#300000000
0.
0:
0'"
0K"
0Q"
0W"
0]"
0c"
0i"
0o"
0u"
0{"
0$#
0*#
08#
0>#
0A#
1J#
1K#
1Q#
1W#
0]#
#325000000
1.
1:
b10 <
b0001100000000000 >
b100 T
0W
b0001100000000000 Y
b1000000 c
b10 l
0$"
b100 %"
1'"
0F"
1K"
1Q"
1W"
1]"
0_"
1c"
1i"
1o"
1u"
1{"
b0001100000000000 "#
b0001100000000000 ##
1$#
1*#
b1000000 /#
b10 0#
b0000010 2#
b10 6#
18#
b0000010 ;#
1>#
1A#
0J#
0K#
0Q#
0W#
1]#
b10 _#
b10 `#
#350000000
0.
0:
0'"
0K"
0Q"
0W"
0]"
0c"
0i"
0o"
0u"
0{"
0$#
0*#
08#
0>#
0A#
1J#
1K#
1Q#
1W#
0]#
#375000000
1.
1:
b00 <
b00 l
1'"
1K"
1Q"
1W"
1]"
1c"
1i"
1o"
1u"
1{"
1$#
1*#
b00 0#
b0000010 3#
b0000010 4#
b00 6#
b0000011 7#
18#
b0000010 <#
b0000010 =#
1>#
b0000010 ?#
1A#
0J#
0K#
0Q#
0W#
1]#
b00 _#
b00 `#
#400000000
0.
0:
0'"
0K"
0Q"
0W"
0]"
0c"
0i"
0o"
0u"
0{"
0$#
0*#
08#
0>#
0A#
1J#
1K#
1Q#
1W#
0]#
#425000000
1.
1:
b01 <
b0110000000000000 =
1W
b0110000000000000 Z
b0110000000000000 `
b01 l
1$"
1'"
1G"
1K"
1Q"
1W"
1]"
1c"
1e"
1i"
1o"
1u"
1{"
b0110000000000000 !#
1$#
1*#
b01 0#
b0110000000000000 1#
b0110000000000000 5#
b01 6#
18#
1>#
b0110000000000000 @#
1A#
0J#
0K#
0Q#
0W#
1]#
b01 _#
b01 `#
#450000000
0.
0:
0'"
0K"
0Q"
0W"
0]"
0c"
0i"
0o"
0u"
0{"
0$#
0*#
08#
0>#
0A#
1J#
1K#
1Q#
1W#
0]#
#475000000
1.
1:
b10 <
b0110000000000000 >
b000 T
0W
b0110000000000000 Y
b0110 [
1]
b0000000 c
b10 l
0$"
b000 %"
1'"
0G"
1K"
1Q"
1W"
1]"
1c"
0e"
1i"
1o"
1u"
1{"
b0110000000000000 "#
b0110000000000000 ##
1$#
1&#
1*#
b0000000 /#
b10 0#
b0000011 2#
b10 6#
18#
b0000011 ;#
1>#
1A#
0J#
0K#
0Q#
0W#
1]#
b10 _#
b10 `#
#500000000
0.
0:
0'"
0K"
0Q"
0W"
0]"
0c"
0i"
0o"
0u"
0{"
0$#
0*#
08#
0>#
0A#
1J#
1K#
1Q#
1W#
0]#
#525000000
1.
1:
b00 <
0]
b00 l
1'"
1K"
1Q"
1W"
1]"
1c"
1i"
1o"
1u"
1{"
1$#
0&#
1*#
b00 0#
b0000011 3#
b0000011 4#
b00 6#
b0000100 7#
18#
b0000011 <#
b0000011 =#
1>#
b0000011 ?#
1A#
0J#
0K#
0Q#
0W#
1]#
b00 _#
b00 `#
#550000000
0.
0:
0'"
0K"
0Q"
0W"
0]"
0c"
0i"
0o"
0u"
0{"
0$#
0*#
08#
0>#
0A#
1J#
1K#
1Q#
1W#
0]#
#575000000
1.
1:
b01 <
b0010000011000000 =
b0010000011000000 Z
b0010000011000000 `
b01 l
1'"
1K"
1Q"
1W"
1]"
1c"
1i"
1o"
1u"
1{"
b0010000011000000 !#
1$#
1*#
b01 0#
b0010000011000000 1#
b0010000011000000 5#
b01 6#
18#
1>#
b0010000011000000 @#
1A#
0J#
0K#
0Q#
0W#
1]#
b01 _#
b01 `#
#600000000
0.
0:
0'"
0K"
0Q"
0W"
0]"
0c"
0i"
0o"
0u"
0{"
0$#
0*#
08#
0>#
0A#
1J#
1K#
1Q#
1W#
0]#
#625000000
1.
1:
b10 <
b0010000011000000 >
b00 M
b0000000011000000 S
b011 U
b011000000 X
b0010000011000000 Y
b0010 [
1]
b0000110 c
1k
b10 l
b00 m
b011 ""
b0000000011000000 &"
1'"
b0000000011000000 <"
b0000000011000000 ="
b0000000011000000 >"
b0000000011000000 ?"
b0000000011000000 @"
b0000000011000000 A"
b0000000011000000 B"
1K"
1Q"
b0000000011000000 T"
1W"
b0000000011000000 Z"
1]"
b0000000011000000 `"
1c"
b0000000011000000 f"
1i"
b0000000011000000 l"
1o"
b0000000011000000 r"
1u"
b0000000011000000 x"
1{"
b0010000011000000 "#
b0010000011000000 ##
1$#
1&#
1*#
b0000110 /#
b10 0#
b0000100 2#
b10 6#
18#
b0000100 ;#
1>#
1A#
1I#
0J#
0K#
1M#
0Q#
1S#
0W#
1Y#
1]#
b10 _#
b10 `#
#650000000
0.
0:
1f
0'"
0K"
0Q"
0W"
0]"
0c"
0i"
0o"
0u"
0{"
0$#
0*#
08#
0>#
0A#
1D#
1J#
1K#
1O#
1P#
1Q#
1W#
0]#
#675000000
1.
1:
b00 <
0]
0k
b00 l
1'"
1K"
1Q"
1W"
1]"
1c"
1i"
1o"
1u"
1{"
1$#
0&#
1*#
b00 0#
b0000100 3#
b0000100 4#
b00 6#
b0000101 7#
18#
b0000100 <#
b0000100 =#
1>#
b0000100 ?#
1A#
0I#
0J#
0K#
0M#
0Q#
0S#
0W#
0Y#
1]#
b00 _#
b00 `#
#700000000
0.
0:
0'"
0K"
0Q"
0W"
0]"
0c"
0i"
0o"
0u"
0{"
0$#
0*#
08#
0>#
0A#
1J#
1K#
1Q#
1W#
0]#
#725000000
1.
1:
b01 <
b0010000100000000 =
b0010000100000000 Z
b0010000100000000 `
b01 l
1'"
1K"
1Q"
1W"
1]"
1c"
1i"
1o"
1u"
1{"
b0010000100000000 !#
1$#
1*#
b01 0#
b0010000100000000 1#
b0010000100000000 5#
b01 6#
18#
1>#
b0010000100000000 @#
1A#
0J#
0K#
0Q#
0W#
1]#
b01 _#
b01 `#
#750000000
0.
0:
0'"
0K"
0Q"
0W"
0]"
0c"
0i"
0o"
0u"
0{"
0$#
0*#
08#
0>#
0A#
1J#
1K#
1Q#
1W#
0]#
#775000000
1.
1:
b10 <
b0010000100000000 >
b0000000100000000 S
b100 U
b100000000 X
b0010000100000000 Y
1]
b0001000 c
1k
b10 l
b100 ""
b0000000100000000 &"
1'"
b0000000100000000 <"
b0000000100000000 ="
b0000000100000000 >"
b0000000100000000 ?"
b0000000100000000 @"
b0000000100000000 A"
b0000000100000000 B"
1K"
1Q"
b0000000100000000 T"
1W"
b0000000100000000 Z"
1]"
b0000000100000000 `"
1c"
b0000000100000000 f"
1i"
b0000000100000000 l"
1o"
b0000000100000000 r"
1u"
b0000000100000000 x"
1{"
b0010000100000000 "#
b0010000100000000 ##
1$#
1&#
1*#
b0001000 /#
b10 0#
b0000101 2#
b10 6#
18#
b0000101 ;#
1>#
1A#
1I#
0J#
0K#
1M#
0Q#
1S#
0W#
1Y#
1]#
b10 _#
b10 `#
#800000000
0.
0:
0'"
0K"
0Q"
0W"
0]"
0c"
0i"
0o"
0u"
0{"
0$#
0*#
08#
0>#
0A#
1J#
1K#
1Q#
1W#
0]#
#825000000
1.
1:
b00 <
0]
0k
b00 l
1'"
1K"
1Q"
1W"
1]"
1c"
1i"
1o"
1u"
1{"
1$#
0&#
1*#
b00 0#
b0000101 3#
b0000101 4#
b00 6#
b0000110 7#
18#
b0000101 <#
b0000101 =#
1>#
b0000101 ?#
1A#
0I#
0J#
0K#
0M#
0Q#
0S#
0W#
0Y#
1]#
b00 _#
b00 `#
#850000000
0.
0:
0'"
0K"
0Q"
0W"
0]"
0c"
0i"
0o"
0u"
0{"
0$#
0*#
08#
0>#
0A#
1J#
1K#
1Q#
1W#
0]#
#875000000
1.
1:
b01 <
b0111100000000000 =
b0111100000000000 Z
b0111100000000000 `
b01 l
1'"
1K"
1Q"
1W"
1]"
1c"
1i"
1o"
1u"
1{"
b0111100000000000 !#
1$#
1*#
b01 0#
b0111100000000000 1#
b0111100000000000 5#
b01 6#
18#
1>#
b0111100000000000 @#
1A#
0J#
0K#
0Q#
0W#
1]#
b01 _#
b01 `#
#900000000
0.
0:
0'"
0K"
0Q"
0W"
0]"
0c"
0i"
0o"
0u"
0{"
0$#
0*#
08#
0>#
0A#
1J#
1K#
1Q#
1W#
0]#
#925000000
1.
1:
b10 <
b0111100000000000 >
b01 M
b0000000000000000 S
b100 T
b000 U
b000000000 X
b0111100000000000 Y
b0111 [
0]
b1000000 c
0k
b10 l
b01 m
b000 ""
b100 %"
b0000000000000000 &"
1'"
b0000000000000000 <"
b0000000000000000 ="
b0000000000000000 >"
b0000000000000000 ?"
b0000000000000000 @"
b0000000000000000 A"
b0000000000000000 B"
1K"
1Q"
b0000000000000000 T"
1W"
b0000000000000000 Z"
1]"
b0000000000000000 `"
1c"
b0000000000000000 f"
1i"
b0000000000000000 l"
1o"
b0000000000000000 r"
1u"
b0000000000000000 x"
1{"
b0111100000000000 "#
b0111100000000000 ##
1$#
0&#
1*#
b1000000 /#
b10 0#
b0000110 2#
b10 6#
18#
b0000110 ;#
1>#
1A#
0I#
0J#
0K#
0M#
0Q#
0S#
0W#
0Y#
1]#
b10 _#
b10 `#
#950000000
0.
0:
0'"
0K"
0Q"
0W"
0]"
0c"
0i"
0o"
0u"
0{"
0$#
0*#
08#
0>#
0A#
1J#
1K#
1Q#
1W#
0]#
#975000000
1.
1:
b00 <
b00 l
1'"
1K"
1Q"
1W"
1]"
1c"
1i"
1o"
1u"
1{"
1$#
1*#
b00 0#
b0000110 3#
b0000110 4#
b00 6#
b0000111 7#
18#
b0000110 <#
b0000110 =#
1>#
b0000110 ?#
1A#
0J#
0K#
0Q#
0W#
1]#
b00 _#
b00 `#
#1000000000
0.
0:
0'"
0K"
0Q"
0W"
0]"
0c"
0i"
0o"
0u"
0{"
0$#
0*#
08#
0>#
0A#
1J#
1K#
1Q#
1W#
0]#
#1025000000
1.
1:
b01 <
b0110000000000000 =
1W
b0110000000000000 Z
b0110000000000000 `
b01 l
1$"
1'"
1G"
1K"
1Q"
1W"
1]"
1c"
1e"
1i"
1o"
1u"
1{"
b0110000000000000 !#
1$#
1*#
b01 0#
b0110000000000000 1#
b0110000000000000 5#
b01 6#
18#
1>#
b0110000000000000 @#
1A#
0J#
0K#
0Q#
0W#
1]#
b01 _#
b01 `#
#1050000000
0.
0:
0'"
0K"
0Q"
0W"
0]"
0c"
0i"
0o"
0u"
0{"
0$#
0*#
08#
0>#
0A#
1J#
1K#
1Q#
1W#
0]#
#1075000000
1.
1:
b10 <
b0110000000000000 >
b000 T
0W
b0110000000000000 Y
b0110 [
1]
b0000000 c
b10 l
0$"
b000 %"
1'"
0G"
1K"
1Q"
1W"
1]"
1c"
0e"
1i"
1o"
1u"
1{"
b0110000000000000 "#
b0110000000000000 ##
1$#
1&#
1*#
b0000000 /#
b10 0#
b0000111 2#
b10 6#
18#
b0000111 ;#
1>#
1A#
0J#
0K#
0Q#
0W#
1]#
b10 _#
b10 `#
#1100000000
0.
0:
0'"
0K"
0Q"
0W"
0]"
0c"
0i"
0o"
0u"
0{"
0$#
0*#
08#
0>#
0A#
1J#
1K#
1Q#
1W#
0]#
#1125000000
1.
1:
b00 <
0]
b00 l
1'"
1K"
1Q"
1W"
1]"
1c"
1i"
1o"
1u"
1{"
1$#
0&#
1*#
b00 0#
b0000111 3#
b0000111 4#
b00 6#
b0001000 7#
18#
b0000111 <#
b0000111 =#
1>#
b0000111 ?#
1A#
0J#
0K#
0Q#
0W#
1]#
b00 _#
b00 `#
#1150000000
0.
0:
0'"
0K"
0Q"
0W"
0]"
0c"
0i"
0o"
0u"
0{"
0$#
0*#
08#
0>#
0A#
1J#
1K#
1Q#
1W#
0]#
#1175000000
1.
1:
b01 <
b0011000000000001 =
b0011000000000001 Z
b0011000000000001 `
b01 l
1'"
1K"
1Q"
1W"
1]"
1c"
1i"
1o"
1u"
1{"
b0011000000000001 !#
1$#
1*#
b01 0#
b0011000000000001 1#
b0011000000000001 5#
b01 6#
18#
1>#
b0011000000000001 @#
1A#
0J#
0K#
0Q#
0W#
1]#
b01 _#
b01 `#
#1200000000
0.
0:
0'"
0K"
0Q"
0W"
0]"
0c"
0i"
0o"
0u"
0{"
0$#
0*#
08#
0>#
0A#
1J#
1K#
1Q#
1W#
0]#
