processador_tb.vcd
$date
  Wed May 29 18:52:16 2024
$end
$version
  GHDL v0
$end
$timescale
  1 fs
$end
$scope module standard $end
$upscope $end
$scope module std_logic_1164 $end
$upscope $end
$scope module numeric_std $end
$upscope $end
$scope module processador_tb $end
$var reg 2 ! operation[1:0] $end
$var reg 16 " in_a[15:0] $end
$var reg 16 # in_b[15:0] $end
$var reg 16 $ ulaout[15:0] $end
$var reg 1 % is_zero $end
$var reg 1 & mux_2 $end
$var reg 3 ' read_0[2:0] $end
$var reg 3 ( read_1[2:0] $end
$var reg 3 ) write_register[2:0] $end
$var reg 16 * read_data1[15:0] $end
$var reg 16 + cte[15:0] $end
$var reg 1 , wr_en $end
$var reg 1 - finished $end
$var reg 1 . clk $end
$var reg 1 / rst $end
$var reg 16 0 ula_out[15:0] $end
$var reg 1 1 zero_flag $end
$var reg 16 2 r0[15:0] $end
$var reg 16 3 r1[15:0] $end
$var reg 16 4 r2[15:0] $end
$var reg 16 5 r3[15:0] $end
$var reg 16 6 r4[15:0] $end
$var reg 16 7 r5[15:0] $end
$var reg 16 8 r6[15:0] $end
$var reg 16 9 r7[15:0] $end
$scope module tp_lvl $end
$var reg 1 : clk $end
$var reg 1 ; rst $end
$var reg 2 < estado_out[1:0] $end
$var reg 16 = pc_out[15:0] $end
$var reg 16 > instruction_reg_out[15:0] $end
$var reg 16 ? acumulador_out[15:0] $end
$var reg 16 @ ula_out[15:0] $end
$var reg 16 A r0[15:0] $end
$var reg 16 B r1[15:0] $end
$var reg 16 C r2[15:0] $end
$var reg 16 D r3[15:0] $end
$var reg 16 E r4[15:0] $end
$var reg 16 F r5[15:0] $end
$var reg 16 G r6[15:0] $end
$var reg 16 H r7[15:0] $end
$var reg 16 I in_a[15:0] $end
$var reg 16 J in_b[15:0] $end
$var reg 16 K ulaout_s[15:0] $end
$var reg 1 L is_zero $end
$var reg 2 M operation_ula[1:0] $end
$var reg 1 N zero_flag_s $end
$var reg 1 O overflow_flag_s $end
$var reg 1 P carry_flag_s $end
$var reg 16 Q rega_data_out[15:0] $end
$var reg 16 R regb_data_out[15:0] $end
$var reg 16 S write_data_s[15:0] $end
$var reg 3 T write_register_s[2:0] $end
$var reg 3 U ra_address[2:0] $end
$var reg 3 V rb_address[2:0] $end
$var reg 1 W wr_en_s $end
$var reg 9 X const[8:0] $end
$var reg 16 Y data_out_instruction_reg[15:0] $end
$var reg 16 Z data_in_instruction_reg[15:0] $end
$var reg 4 [ opcode[3:0] $end
$var reg 1 \ wr_en_instruction_reg $end
$var reg 1 ] wr_en_accumulator $end
$var reg 16 ^ data_in_accumulator[15:0] $end
$var reg 16 _ data_out_accumulator[15:0] $end
$var reg 16 ` data_out_proto_control[15:0] $end
$var reg 1 a is_branch_s $end
$var reg 1 b is_relative_branch_s $end
$var reg 7 c branch_address_s[6:0] $end
$var reg 1 d wr_en_proto_control $end
$var reg 1 e flag_zero_in_ctr $end
$var reg 1 f flag_zero_out_ctr $end
$var reg 1 g flag_overflow_in_ctr $end
$var reg 1 h flag_overflow_out_ctr $end
$var reg 1 i flag_carry_in_ctr $end
$var reg 1 j flag_carry_out_ctr $end
$var reg 1 k wr_en_flags_ctr $end
$var reg 2 l estado_s[1:0] $end
$scope module ula_1 $end
$var reg 2 m operation[1:0] $end
$var reg 16 n in_a[15:0] $end
$var reg 16 o in_b[15:0] $end
$var reg 16 p ulaout[15:0] $end
$var reg 1 q zero_flag $end
$var reg 1 r overflow_flag $end
$var reg 1 s carry_flag $end
$var reg 16 t result_and[15:0] $end
$var reg 16 u result_xor[15:0] $end
$var reg 17 v result_subtracter[16:0] $end
$var reg 17 w result_adder[16:0] $end
$var reg 17 x final_result[16:0] $end
$scope module adder1 $end
$var reg 16 y in_a[15:0] $end
$var reg 16 z in_b[15:0] $end
$var reg 17 { result[16:0] $end
$upscope $end
$scope module subtracter1 $end
$var reg 16 | in_a[15:0] $end
$var reg 16 } in_b[15:0] $end
$var reg 17 !" result[16:0] $end
$upscope $end
$scope module and_op1 $end
$var reg 16 "" in_a[15:0] $end
$var reg 16 #" in_b[15:0] $end
$var reg 16 $" result[15:0] $end
$upscope $end
$scope module xor_op1 $end
$var reg 16 %" in_a[15:0] $end
$var reg 16 &" in_b[15:0] $end
$var reg 16 '" result[15:0] $end
$var reg 16 (" aux[15:0] $end
$upscope $end
$upscope $end
$scope module reg_bd_1 $end
$var reg 3 )" read_r0[2:0] $end
$var reg 3 *" read_r1[2:0] $end
$var reg 1 +" wr_en $end
$var reg 3 ," write_register[2:0] $end
$var reg 16 -" write_data[15:0] $end
$var reg 1 ." clk $end
$var reg 1 /" rst $end
$var reg 16 0" read_data0[15:0] $end
$var reg 16 1" read_data1[15:0] $end
$var reg 16 2" r0[15:0] $end
$var reg 16 3" r1[15:0] $end
$var reg 16 4" r2[15:0] $end
$var reg 16 5" r3[15:0] $end
$var reg 16 6" r4[15:0] $end
$var reg 16 7" r5[15:0] $end
$var reg 16 8" r6[15:0] $end
$var reg 16 9" r7[15:0] $end
$var reg 16 :" reg0_out[15:0] $end
$var reg 16 ;" reg1_out[15:0] $end
$var reg 16 <" reg2_out[15:0] $end
$var reg 16 =" reg3_out[15:0] $end
$var reg 16 >" reg4_out[15:0] $end
$var reg 16 ?" reg5_out[15:0] $end
$var reg 16 @" reg6_out[15:0] $end
$var reg 16 A" reg7_out[15:0] $end
$var reg 16 B" reg0_in[15:0] $end
$var reg 16 C" reg1_in[15:0] $end
$var reg 16 D" reg2_in[15:0] $end
$var reg 16 E" reg3_in[15:0] $end
$var reg 16 F" reg4_in[15:0] $end
$var reg 16 G" reg5_in[15:0] $end
$var reg 16 H" reg6_in[15:0] $end
$var reg 16 I" reg7_in[15:0] $end
$var reg 1 J" wr_en0 $end
$var reg 1 K" wr_en1 $end
$var reg 1 L" wr_en2 $end
$var reg 1 M" wr_en3 $end
$var reg 1 N" wr_en4 $end
$var reg 1 O" wr_en5 $end
$var reg 1 P" wr_en6 $end
$var reg 1 Q" wr_en7 $end
$scope module reg0 $end
$var reg 1 R" clk $end
$var reg 1 S" rst $end
$var reg 1 T" wr_en $end
$var reg 16 U" data_in[15:0] $end
$var reg 16 V" data_out[15:0] $end
$var reg 16 W" reg[15:0] $end
$upscope $end
$scope module reg1 $end
$var reg 1 X" clk $end
$var reg 1 Y" rst $end
$var reg 1 Z" wr_en $end
$var reg 16 [" data_in[15:0] $end
$var reg 16 \" data_out[15:0] $end
$var reg 16 ]" reg[15:0] $end
$upscope $end
$scope module reg2 $end
$var reg 1 ^" clk $end
$var reg 1 _" rst $end
$var reg 1 `" wr_en $end
$var reg 16 a" data_in[15:0] $end
$var reg 16 b" data_out[15:0] $end
$var reg 16 c" reg[15:0] $end
$upscope $end
$scope module reg3 $end
$var reg 1 d" clk $end
$var reg 1 e" rst $end
$var reg 1 f" wr_en $end
$var reg 16 g" data_in[15:0] $end
$var reg 16 h" data_out[15:0] $end
$var reg 16 i" reg[15:0] $end
$upscope $end
$scope module reg4 $end
$var reg 1 j" clk $end
$var reg 1 k" rst $end
$var reg 1 l" wr_en $end
$var reg 16 m" data_in[15:0] $end
$var reg 16 n" data_out[15:0] $end
$var reg 16 o" reg[15:0] $end
$upscope $end
$scope module beg5 $end
$var reg 1 p" clk $end
$var reg 1 q" rst $end
$var reg 1 r" wr_en $end
$var reg 16 s" data_in[15:0] $end
$var reg 16 t" data_out[15:0] $end
$var reg 16 u" reg[15:0] $end
$upscope $end
$scope module beg6 $end
$var reg 1 v" clk $end
$var reg 1 w" rst $end
$var reg 1 x" wr_en $end
$var reg 16 y" data_in[15:0] $end
$var reg 16 z" data_out[15:0] $end
$var reg 16 {" reg[15:0] $end
$upscope $end
$scope module beg7 $end
$var reg 1 |" clk $end
$var reg 1 }" rst $end
$var reg 1 !# wr_en $end
$var reg 16 "# data_in[15:0] $end
$var reg 16 ## data_out[15:0] $end
$var reg 16 $# reg[15:0] $end
$upscope $end
$upscope $end
$scope module instruction_reg $end
$var reg 1 %# clk $end
$var reg 1 &# rst $end
$var reg 1 '# wr_en $end
$var reg 16 (# data_in[15:0] $end
$var reg 16 )# data_out[15:0] $end
$var reg 16 *# reg[15:0] $end
$upscope $end
$scope module accumulator $end
$var reg 1 +# clk $end
$var reg 1 ,# rst $end
$var reg 1 -# wr_en $end
$var reg 16 .# data_in[15:0] $end
$var reg 16 /# data_out[15:0] $end
$var reg 16 0# reg[15:0] $end
$upscope $end
$scope module proto_control_1 $end
$var reg 1 1# clk $end
$var reg 1 2# rst $end
$var reg 1 3# wr_en $end
$var reg 1 4# is_branch $end
$var reg 1 5# is_relative_branch $end
$var reg 7 6# branch_address[6:0] $end
$var reg 2 7# estado[1:0] $end
$var reg 16 8# data_out[15:0] $end
$var reg 7 9# data_in_pc[6:0] $end
$var reg 7 :# data_out_pc[6:0] $end
$var reg 7 ;# address_rom[6:0] $end
$var reg 16 <# data_out_rom[15:0] $end
$var reg 2 =# estado_s[1:0] $end
$var reg 7 ># new_address[6:0] $end
$scope module pc $end
$var reg 1 ?# clk $end
$var reg 1 @# rst $end
$var reg 1 A# wr_en $end
$var reg 7 B# data_in[6:0] $end
$var reg 7 C# data_out[6:0] $end
$var reg 7 D# reg[6:0] $end
$upscope $end
$scope module rom_1 $end
$var reg 1 E# clk $end
$var reg 7 F# address[6:0] $end
$var reg 16 G# data[15:0] $end
$upscope $end
$upscope $end
$scope module control_unity_1 $end
$var reg 1 H# clk $end
$var reg 1 I# rst $end
$var reg 1 J# flag_zero_in $end
$var reg 1 K# flag_zero_out $end
$var reg 1 L# flag_overflow_in $end
$var reg 1 M# flag_overflow_out $end
$var reg 1 N# flag_carry_in $end
$var reg 1 O# flag_carry_out $end
$var reg 1 P# wr_enable_flags $end
$scope module flag_zero $end
$var reg 1 Q# clk $end
$var reg 1 R# rst $end
$var reg 1 S# wr_en $end
$var reg 1 T# data_in $end
$var reg 1 U# data_out $end
$var reg 1 V# reg $end
$upscope $end
$scope module flag_overflow $end
$var reg 1 W# clk $end
$var reg 1 X# rst $end
$var reg 1 Y# wr_en $end
$var reg 1 Z# data_in $end
$var reg 1 [# data_out $end
$var reg 1 \# reg $end
$upscope $end
$scope module flag_carry $end
$var reg 1 ]# clk $end
$var reg 1 ^# rst $end
$var reg 1 _# wr_en $end
$var reg 1 `# data_in $end
$var reg 1 a# data_out $end
$var reg 1 b# reg $end
$upscope $end
$upscope $end
$scope module three_state_machine_1 $end
$var reg 1 c# clk $end
$var reg 1 d# rst $end
$var reg 2 e# estado[1:0] $end
$var reg 2 f# estado_s[1:0] $end
$upscope $end
$upscope $end
$upscope $end
$enddefinitions $end
#0
bUU !
bUUUUUUUUUUUUUUUU "
bUUUUUUUUUUUUUUUU #
bUUUUUUUUUUUUUUUU $
U%
U&
bUUU '
bUUU (
bUUU )
bUUUUUUUUUUUUUUUU *
bUUUUUUUUUUUUUUUU +
U,
0-
0.
1/
b0000000000000000 0
U1
b0000000000000000 2
bUUUUUUUUUUUUUUUU 3
b0000000000000000 4
b0000000000000000 5
b0000000000000000 6
b0000000000000000 7
b0000000000000000 8
b0000000000000000 9
0:
1;
b00 <
bUUUUUUUUUUUUUUUU =
b0000000000000000 >
b0000000000000000 ?
b0000000000000000 @
b0000000000000000 A
bUUUUUUUUUUUUUUUU B
b0000000000000000 C
b0000000000000000 D
b0000000000000000 E
b0000000000000000 F
b0000000000000000 G
b0000000000000000 H
b0000000000000000 I
b0000000000000000 J
b0000000000000000 K
UL
b01 M
1N
0O
0P
b0000000000000000 Q
b0000000000000000 R
b0000000000000000 S
b000 T
b000 U
bUUU V
0W
b000000000 X
b0000000000000000 Y
bUUUUUUUUUUUUUUUU Z
b0000 [
1\
0]
b0000000000000000 ^
b0000000000000000 _
bUUUUUUUUUUUUUUUU `
0a
0b
b0000000 c
Ud
Ue
0f
Ug
0h
Ui
0j
0k
b00 l
b01 m
b0000000000000000 n
b0000000000000000 o
b0000000000000000 p
1q
0r
0s
bUUUUUUUUUUUUUUUU t
b0000000000000000 u
b00000000000000000 v
b00000000000000000 w
b00000000000000000 x
b0000000000000000 y
b0000000000000000 z
b00000000000000000 {
b0000000000000000 |
b0000000000000000 }
b00000000000000000 !"
b0000000000000000 ""
b0000000000000000 #"
b0000000000000000 $"
b0000000000000000 %"
b0000000000000000 &"
b0000000000000000 '"
bUUUUUUUUUUUUUUUU ("
b000 )"
bUUU *"
0+"
b000 ,"
b0000000000000000 -"
0."
1/"
b0000000000000000 0"
b0000000000000000 1"
b0000000000000000 2"
b0000000000000000 3"
b0000000000000000 4"
b0000000000000000 5"
b0000000000000000 6"
b0000000000000000 7"
b0000000000000000 8"
b0000000000000000 9"
b0000000000000000 :"
b0000000000000000 ;"
b0000000000000000 <"
b0000000000000000 ="
b0000000000000000 >"
b0000000000000000 ?"
b0000000000000000 @"
b0000000000000000 A"
b0000000000000000 B"
b0000000000000000 C"
b0000000000000000 D"
b0000000000000000 E"
b0000000000000000 F"
b0000000000000000 G"
b0000000000000000 H"
b0000000000000000 I"
0J"
0K"
0L"
0M"
0N"
0O"
0P"
0Q"
0R"
1S"
0T"
b0000000000000000 U"
b0000000000000000 V"
b0000000000000000 W"
0X"
1Y"
0Z"
b0000000000000000 ["
b0000000000000000 \"
b0000000000000000 ]"
0^"
1_"
0`"
b0000000000000000 a"
b0000000000000000 b"
b0000000000000000 c"
0d"
1e"
0f"
b0000000000000000 g"
b0000000000000000 h"
b0000000000000000 i"
0j"
1k"
0l"
b0000000000000000 m"
b0000000000000000 n"
b0000000000000000 o"
0p"
1q"
0r"
b0000000000000000 s"
b0000000000000000 t"
b0000000000000000 u"
0v"
1w"
0x"
b0000000000000000 y"
b0000000000000000 z"
b0000000000000000 {"
0|"
1}"
0!#
b0000000000000000 "#
b0000000000000000 ##
b0000000000000000 $#
0%#
1&#
1'#
bUUUUUUUUUUUUUUUU (#
b0000000000000000 )#
b0000000000000000 *#
0+#
1,#
0-#
b0000000000000000 .#
b0000000000000000 /#
b0000000000000000 0#
01#
12#
U3#
04#
05#
b0000000 6#
b00 7#
bUUUUUUUUUUUUUUUU 8#
b0000000 9#
b0000000 :#
b0000000 ;#
bUUUUUUUUUUUUUUUU <#
b00 =#
b0000001 >#
0?#
1@#
UA#
b0000000 B#
b0000000 C#
b0000000 D#
0E#
b0000000 F#
bUUUUUUUUUUUUUUUU G#
0H#
1I#
1J#
0K#
0L#
0M#
0N#
0O#
0P#
0Q#
1R#
0S#
1T#
0U#
0V#
0W#
1X#
0Y#
0Z#
0[#
0\#
0]#
1^#
0_#
0`#
0a#
0b#
0c#
1d#
b00 e#
b00 f#
#25000000
1.
1:
b0001011000000101 =
b0001011000000101 Z
b0001011000000101 `
1."
1R"
1X"
1^"
1d"
1j"
1p"
1v"
1|"
1%#
b0001011000000101 (#
1+#
11#
b0001011000000101 8#
b0001011000000101 <#
1?#
1E#
b0001011000000101 G#
1H#
1Q#
1W#
1]#
1c#
#50000000
0.
0:
0."
0R"
0X"
0^"
0d"
0j"
0p"
0v"
0|"
0%#
0+#
01#
0?#
0E#
0H#
0Q#
0W#
0]#
0c#
#75000000
1.
1:
1."
1R"
1X"
1^"
1d"
1j"
1p"
1v"
1|"
1%#
1+#
11#
1?#
1E#
1H#
1Q#
1W#
1]#
1c#
#100000000
0.
0/
0:
0;
0."
0/"
0R"
0S"
0X"
0Y"
0^"
0_"
0d"
0e"
0j"
0k"
0p"
0q"
0v"
0w"
0|"
0}"
0%#
0&#
0+#
0,#
01#
02#
0?#
0@#
0E#
0H#
0I#
0Q#
0R#
0W#
0X#
0]#
0^#
0c#
0d#
#125000000
1.
1:
b01 <
b0001011000000101 >
b0000000000000101 S
b011 T
1W
b000000101 X
b0001011000000101 Y
b0001 [
b0110000 c
b01 l
1+"
b011 ,"
b0000000000000101 -"
1."
b0000000000000101 C"
b0000000000000101 D"
b0000000000000101 E"
b0000000000000101 F"
b0000000000000101 G"
b0000000000000101 H"
b0000000000000101 I"
1M"
1R"
1X"
b0000000000000101 ["
1^"
b0000000000000101 a"
1d"
1f"
b0000000000000101 g"
1j"
b0000000000000101 m"
1p"
b0000000000000101 s"
1v"
b0000000000000101 y"
1|"
b0000000000000101 "#
1%#
b0001011000000101 )#
b0001011000000101 *#
1+#
11#
b0110000 6#
b01 7#
b01 =#
1?#
1E#
1H#
1Q#
1W#
1]#
1c#
b01 e#
b01 f#
#150000000
0.
0:
0."
0R"
0X"
0^"
0d"
0j"
0p"
0v"
0|"
0%#
0+#
01#
0?#
0E#
0H#
0Q#
0W#
0]#
0c#
#175000000
1.
b0000000000000101 5
1:
b10 <
b0000000000000101 D
0W
1d
b10 l
0+"
1."
b0000000000000101 5"
b0000000000000101 ="
0M"
1R"
1X"
1^"
1d"
0f"
b0000000000000101 h"
b0000000000000101 i"
1j"
1p"
1v"
1|"
1%#
1+#
11#
13#
b10 7#
b0000001 9#
b10 =#
1?#
1A#
b0000001 B#
1E#
1H#
1Q#
1W#
1]#
1c#
b10 e#
b10 f#
#200000000
0.
0:
0."
0R"
0X"
0^"
0d"
0j"
0p"
0v"
0|"
0%#
0+#
01#
0?#
0E#
0H#
0Q#
0W#
0]#
0c#
#225000000
1.
1:
b00 <
b00 l
1."
1R"
1X"
1^"
1d"
1j"
1p"
1v"
1|"
1%#
1+#
11#
b00 7#
b0000001 :#
b0000001 ;#
b00 =#
b0000010 >#
1?#
b0000001 C#
b0000001 D#
1E#
b0000001 F#
1H#
1Q#
1W#
1]#
1c#
b00 e#
b00 f#
#250000000
0.
0:
0."
0R"
0X"
0^"
0d"
0j"
0p"
0v"
0|"
0%#
0+#
01#
0?#
0E#
0H#
0Q#
0W#
0]#
0c#
#275000000
1.
1:
b01 <
b0001100000001000 =
1W
b0001100000001000 Z
b0001100000001000 `
b01 l
1+"
1."
1M"
1R"
1X"
1^"
1d"
1f"
1j"
1p"
1v"
1|"
1%#
b0001100000001000 (#
1+#
11#
b01 7#
b0001100000001000 8#
b0001100000001000 <#
b01 =#
1?#
1E#
b0001100000001000 G#
1H#
1Q#
1W#
1]#
1c#
b01 e#
b01 f#
#300000000
0.
0:
0."
0R"
0X"
0^"
0d"
0j"
0p"
0v"
0|"
0%#
0+#
01#
0?#
0E#
0H#
0Q#
0W#
0]#
0c#
#325000000
1.
1:
b10 <
b0001100000001000 >
b0000000000001000 S
b100 T
0W
b000001000 X
b0001100000001000 Y
b1000000 c
b10 l
0+"
b100 ,"
b0000000000001000 -"
1."
b0000000000001000 C"
b0000000000001000 D"
b0000000000001000 E"
b0000000000001000 F"
b0000000000001000 G"
b0000000000001000 H"
b0000000000001000 I"
0M"
1R"
1X"
b0000000000001000 ["
1^"
b0000000000001000 a"
1d"
0f"
b0000000000001000 g"
1j"
b0000000000001000 m"
1p"
b0000000000001000 s"
1v"
b0000000000001000 y"
1|"
b0000000000001000 "#
1%#
b0001100000001000 )#
b0001100000001000 *#
1+#
11#
b1000000 6#
b10 7#
b0000010 9#
b10 =#
1?#
b0000010 B#
1E#
1H#
1Q#
1W#
1]#
1c#
b10 e#
b10 f#
#350000000
0.
0:
0."
0R"
0X"
0^"
0d"
0j"
0p"
0v"
0|"
0%#
0+#
01#
0?#
0E#
0H#
0Q#
0W#
0]#
0c#
#375000000
1.
1:
b00 <
b00 l
1."
1R"
1X"
1^"
1d"
1j"
1p"
1v"
1|"
1%#
1+#
11#
b00 7#
b0000010 :#
b0000010 ;#
b00 =#
b0000011 >#
1?#
b0000010 C#
b0000010 D#
1E#
b0000010 F#
1H#
1Q#
1W#
1]#
1c#
b00 e#
b00 f#
#400000000
0.
0:
0."
0R"
0X"
0^"
0d"
0j"
0p"
0v"
0|"
0%#
0+#
01#
0?#
0E#
0H#
0Q#
0W#
0]#
0c#
#425000000
1.
1:
b01 <
b0110000000000000 =
1W
b0110000000000000 Z
b0110000000000000 `
b01 l
1+"
1."
1N"
1R"
1X"
1^"
1d"
1j"
1l"
1p"
1v"
1|"
1%#
b0110000000000000 (#
1+#
11#
b01 7#
b0110000000000000 8#
b0110000000000000 <#
b01 =#
1?#
1E#
b0110000000000000 G#
1H#
1Q#
1W#
1]#
1c#
b01 e#
b01 f#
#450000000
0.
0:
0."
0R"
0X"
0^"
0d"
0j"
0p"
0v"
0|"
0%#
0+#
01#
0?#
0E#
0H#
0Q#
0W#
0]#
0c#
#475000000
1.
b0000000000001000 6
1:
b10 <
b0110000000000000 >
b0000000000001000 E
b0000000000000000 S
b000 T
0W
b000000000 X
b0110000000000000 Y
b0110 [
1]
b0000000 c
b10 l
0+"
b000 ,"
b0000000000000000 -"
1."
b0000000000001000 6"
b0000000000001000 >"
b0000000000000000 C"
b0000000000000000 D"
b0000000000000000 E"
b0000000000000000 F"
b0000000000000000 G"
b0000000000000000 H"
b0000000000000000 I"
0N"
1R"
1X"
b0000000000000000 ["
1^"
b0000000000000000 a"
1d"
b0000000000000000 g"
1j"
0l"
b0000000000000000 m"
b0000000000001000 n"
b0000000000001000 o"
1p"
b0000000000000000 s"
1v"
b0000000000000000 y"
1|"
b0000000000000000 "#
1%#
b0110000000000000 )#
b0110000000000000 *#
1+#
1-#
11#
b0000000 6#
b10 7#
b0000011 9#
b10 =#
1?#
b0000011 B#
1E#
1H#
1Q#
1W#
1]#
1c#
b10 e#
b10 f#
#500000000
0.
0:
0."
0R"
0X"
0^"
0d"
0j"
0p"
0v"
0|"
0%#
0+#
01#
0?#
0E#
0H#
0Q#
0W#
0]#
0c#
#525000000
1.
1:
b00 <
0]
b00 l
1."
1R"
1X"
1^"
1d"
1j"
1p"
1v"
1|"
1%#
1+#
0-#
11#
b00 7#
b0000011 :#
b0000011 ;#
b00 =#
b0000100 >#
1?#
b0000011 C#
b0000011 D#
1E#
b0000011 F#
1H#
1Q#
1W#
1]#
1c#
b00 e#
b00 f#
#550000000
0.
0:
0."
0R"
0X"
0^"
0d"
0j"
0p"
0v"
0|"
0%#
0+#
01#
0?#
0E#
0H#
0Q#
0W#
0]#
0c#
#575000000
1.
1:
b01 <
b0010000011000000 =
b0010000011000000 Z
b0010000011000000 `
b01 l
1."
1R"
1X"
1^"
1d"
1j"
1p"
1v"
1|"
1%#
b0010000011000000 (#
1+#
11#
b01 7#
b0010000011000000 8#
b0010000011000000 <#
b01 =#
1?#
1E#
b0010000011000000 G#
1H#
1Q#
1W#
1]#
1c#
b01 e#
b01 f#
#600000000
0.
0:
0."
0R"
0X"
0^"
0d"
0j"
0p"
0v"
0|"
0%#
0+#
01#
0?#
0E#
0H#
0Q#
0W#
0]#
0c#
#625000000
1.
b0000000000000101 0
1:
b10 <
b0010000011000000 >
b0000000000000101 @
b0000000000000101 J
b0000000000000101 K
b00 M
0N
b0000000000000101 Q
b0000000011000000 S
b011 U
b011000000 X
b0010000011000000 Y
b0010 [
1]
b0000000000000101 ^
b0000110 c
1k
b10 l
b00 m
b0000000000000101 o
b0000000000000101 p
0q
b0000000000000X0X u
b11111111111111011 v
b00000000000000101 w
b00000000000000101 x
b0000000000000101 z
b00000000000000101 {
b0000000000000101 }
b11111111111111011 !"
b0000000000000101 #"
b0000000000000X0X $"
b0000000000000101 &"
b0000000000000X0X '"
b011 )"
b0000000011000000 -"
1."
b0000000000000101 0"
b0000000011000000 C"
b0000000011000000 D"
b0000000011000000 E"
b0000000011000000 F"
b0000000011000000 G"
b0000000011000000 H"
b0000000011000000 I"
1R"
1X"
b0000000011000000 ["
1^"
b0000000011000000 a"
1d"
b0000000011000000 g"
1j"
b0000000011000000 m"
1p"
b0000000011000000 s"
1v"
b0000000011000000 y"
1|"
b0000000011000000 "#
1%#
b0010000011000000 )#
b0010000011000000 *#
1+#
1-#
b0000000000000101 .#
11#
b0000110 6#
b10 7#
b0000100 9#
b10 =#
1?#
b0000100 B#
1E#
1H#
0J#
1P#
1Q#
1S#
0T#
1W#
1Y#
1]#
1_#
1c#
b10 e#
b10 f#
#650000000
0.
0:
0."
0R"
0X"
0^"
0d"
0j"
0p"
0v"
0|"
0%#
0+#
01#
0?#
0E#
0H#
0Q#
0W#
0]#
0c#
#675000000
1.
b0000000000001010 0
1:
b00 <
b0000000000000101 ?
b0000000000001010 @
b0000000000000101 I
b0000000000001010 K
0]
b0000000000001010 ^
b0000000000000101 _
0k
b00 l
b0000000000000101 n
b0000000000001010 p
b00000000000000000 v
b00000000000001010 w
b00000000000001010 x
b0000000000000101 y
b00000000000001010 {
b0000000000000101 |
b00000000000000000 !"
b0000000000000101 ""
b0000000000000X0X $"
b0000000000000101 %"
b0000000000000X0X '"
1."
1R"
1X"
1^"
1d"
1j"
1p"
1v"
1|"
1%#
1+#
0-#
b0000000000001010 .#
b0000000000000101 /#
b0000000000000101 0#
11#
b00 7#
b0000100 :#
b0000100 ;#
b00 =#
b0000101 >#
1?#
b0000100 C#
b0000100 D#
1E#
b0000100 F#
1H#
0P#
1Q#
0S#
1W#
0Y#
1]#
0_#
1c#
b00 e#
b00 f#
#700000000
0.
0:
0."
0R"
0X"
0^"
0d"
0j"
0p"
0v"
0|"
0%#
0+#
01#
0?#
0E#
0H#
0Q#
0W#
0]#
0c#
#725000000
1.
1:
b01 <
b0010000100000000 =
b0010000100000000 Z
b0010000100000000 `
b01 l
1."
1R"
1X"
1^"
1d"
1j"
1p"
1v"
1|"
1%#
b0010000100000000 (#
1+#
11#
b01 7#
b0010000100000000 8#
b0010000100000000 <#
b01 =#
1?#
1E#
b0010000100000000 G#
1H#
1Q#
1W#
1]#
1c#
b01 e#
b01 f#
#750000000
0.
0:
0."
0R"
0X"
0^"
0d"
0j"
0p"
0v"
0|"
0%#
0+#
01#
0?#
0E#
0H#
0Q#
0W#
0]#
0c#
#775000000
1.
b0000000000001101 0
1:
b10 <
b0010000100000000 >
b0000000000001101 @
b0000000000001000 J
b0000000000001101 K
b0000000000001000 Q
b0000000100000000 S
b100 U
b100000000 X
b0010000100000000 Y
1]
b0000000000001101 ^
b0001000 c
1k
b10 l
b0000000000001000 o
b0000000000001101 p
b000000000000XX0X u
b11111111111111101 v
b00000000000001101 w
b00000000000001101 x
b0000000000001000 z
b00000000000001101 {
b0000000000001000 }
b11111111111111101 !"
b0000000000001000 #"
b000000000000XX0X $"
b0000000000001000 &"
b000000000000XX0X '"
b100 )"
b0000000100000000 -"
1."
b0000000000001000 0"
b0000000100000000 C"
b0000000100000000 D"
b0000000100000000 E"
b0000000100000000 F"
b0000000100000000 G"
b0000000100000000 H"
b0000000100000000 I"
1R"
1X"
b0000000100000000 ["
1^"
b0000000100000000 a"
1d"
b0000000100000000 g"
1j"
b0000000100000000 m"
1p"
b0000000100000000 s"
1v"
b0000000100000000 y"
1|"
b0000000100000000 "#
1%#
b0010000100000000 )#
b0010000100000000 *#
1+#
1-#
b0000000000001101 .#
11#
b0001000 6#
b10 7#
b0000101 9#
b10 =#
1?#
b0000101 B#
1E#
1H#
1P#
1Q#
1S#
1W#
1Y#
1]#
1_#
1c#
b10 e#
b10 f#
#800000000
0.
0:
0."
0R"
0X"
0^"
0d"
0j"
0p"
0v"
0|"
0%#
0+#
01#
0?#
0E#
0H#
0Q#
0W#
0]#
0c#
#825000000
1.
b0000000000010101 0
1:
b00 <
b0000000000001101 ?
b0000000000010101 @
b0000000000001101 I
b0000000000010101 K
0]
b0000000000010101 ^
b0000000000001101 _
0k
b00 l
b0000000000001101 n
b0000000000010101 p
b00000000000000101 v
b00000000000010101 w
b00000000000010101 x
b0000000000001101 y
b00000000000010101 {
b0000000000001101 |
b00000000000000101 !"
b0000000000001101 ""
b000000000000XX0X $"
b0000000000001101 %"
b000000000000XX0X '"
1."
1R"
1X"
1^"
1d"
1j"
1p"
1v"
1|"
1%#
1+#
0-#
b0000000000010101 .#
b0000000000001101 /#
b0000000000001101 0#
11#
b00 7#
b0000101 :#
b0000101 ;#
b00 =#
b0000110 >#
1?#
b0000101 C#
b0000101 D#
1E#
b0000101 F#
1H#
0P#
1Q#
0S#
1W#
0Y#
1]#
0_#
1c#
b00 e#
b00 f#
#850000000
0.
0:
0."
0R"
0X"
0^"
0d"
0j"
0p"
0v"
0|"
0%#
0+#
01#
0?#
0E#
0H#
0Q#
0W#
0]#
0c#
#875000000
1.
1:
b01 <
b0111101000000000 =
b0111101000000000 Z
b0111101000000000 `
b01 l
1."
1R"
1X"
1^"
1d"
1j"
1p"
1v"
1|"
1%#
b0111101000000000 (#
1+#
11#
b01 7#
b0111101000000000 8#
b0111101000000000 <#
b01 =#
1?#
1E#
b0111101000000000 G#
1H#
1Q#
1W#
1]#
1c#
b01 e#
b01 f#
#900000000
0.
0:
0."
0R"
0X"
0^"
0d"
0j"
0p"
0v"
0|"
0%#
0+#
01#
0?#
0E#
0H#
0Q#
0W#
0]#
0c#
