processador_tb.vcd
$date
  Fri May 24 15:17:58 2024
$end
$version
  GHDL v0
$end
$timescale
  1 fs
$end
$scope module standard $end
$upscope $end
$scope module std_logic_1164 $end
$upscope $end
$scope module numeric_std $end
$upscope $end
$scope module processador_tb $end
$var reg 2 ! operation[1:0] $end
$var reg 16 " in_a[15:0] $end
$var reg 16 # in_b[15:0] $end
$var reg 16 $ ulaout[15:0] $end
$var reg 1 % is_zero $end
$var reg 1 & mux_2 $end
$var reg 3 ' read_0[2:0] $end
$var reg 3 ( read_1[2:0] $end
$var reg 3 ) write_register[2:0] $end
$var reg 16 * read_data1[15:0] $end
$var reg 16 + cte[15:0] $end
$var reg 1 , wr_en $end
$var reg 1 - finished $end
$var reg 1 . clk $end
$var reg 1 / rst $end
$var reg 16 0 ula_out[15:0] $end
$var reg 1 1 zero_flag $end
$var reg 16 2 r0[15:0] $end
$var reg 16 3 r1[15:0] $end
$var reg 16 4 r2[15:0] $end
$var reg 16 5 r3[15:0] $end
$var reg 16 6 r4[15:0] $end
$var reg 16 7 r5[15:0] $end
$var reg 16 8 r6[15:0] $end
$var reg 16 9 r7[15:0] $end
$scope module tp_lvl $end
$var reg 1 : clk $end
$var reg 1 ; rst $end
$var reg 2 < estado_out[1:0] $end
$var reg 16 = pc_out[15:0] $end
$var reg 16 > instruction_reg_out[15:0] $end
$var reg 16 ? acumulador_out[15:0] $end
$var reg 16 @ ula_out[15:0] $end
$var reg 16 A r0[15:0] $end
$var reg 16 B r1[15:0] $end
$var reg 16 C r2[15:0] $end
$var reg 16 D r3[15:0] $end
$var reg 16 E r4[15:0] $end
$var reg 16 F r5[15:0] $end
$var reg 16 G r6[15:0] $end
$var reg 16 H r7[15:0] $end
$var reg 16 I in_a[15:0] $end
$var reg 16 J in_b[15:0] $end
$var reg 16 K ulaout[15:0] $end
$var reg 1 L is_zero $end
$var reg 2 M operation_ula[1:0] $end
$var reg 16 N rega_data_out[15:0] $end
$var reg 16 O regb_data_out[15:0] $end
$var reg 16 P write_data_s[15:0] $end
$var reg 3 Q write_register_s[2:0] $end
$var reg 3 R ra_address[2:0] $end
$var reg 3 S rb_address[2:0] $end
$var reg 1 T wr_en_s $end
$var reg 9 U const[8:0] $end
$var reg 16 V data_out_instruction_reg[15:0] $end
$var reg 16 W data_in_instruction_reg[15:0] $end
$var reg 4 X opcode[3:0] $end
$var reg 1 Y wr_en_instruction_reg $end
$var reg 1 Z wr_en_accumulator $end
$var reg 16 [ data_in_accumulator[15:0] $end
$var reg 16 \ data_out_accumulator[15:0] $end
$var reg 16 ] data_out_proto_control[15:0] $end
$var reg 1 ^ is_branch_s $end
$var reg 7 _ branch_address_s[6:0] $end
$var reg 1 ` wr_en_proto_control $end
$var reg 2 a estado_s[1:0] $end
$scope module ula_1 $end
$var reg 2 b operation[1:0] $end
$var reg 16 c in_a[15:0] $end
$var reg 16 d in_b[15:0] $end
$var reg 16 e ulaout[15:0] $end
$var reg 1 f is_zero $end
$var reg 16 g result_adder[15:0] $end
$var reg 16 h result_subtracter[15:0] $end
$var reg 16 i result_and[15:0] $end
$var reg 16 j result_xor[15:0] $end
$scope module adder1 $end
$var reg 16 k in_a[15:0] $end
$var reg 16 l in_b[15:0] $end
$var reg 16 m result[15:0] $end
$upscope $end
$scope module subtracter1 $end
$var reg 16 n in_a[15:0] $end
$var reg 16 o in_b[15:0] $end
$var reg 16 p result[15:0] $end
$upscope $end
$scope module and_op1 $end
$var reg 16 q in_a[15:0] $end
$var reg 16 r in_b[15:0] $end
$var reg 16 s result[15:0] $end
$upscope $end
$scope module xor_op1 $end
$var reg 16 t in_a[15:0] $end
$var reg 16 u in_b[15:0] $end
$var reg 16 v result[15:0] $end
$var reg 16 w aux[15:0] $end
$upscope $end
$upscope $end
$scope module reg_bd_1 $end
$var reg 3 x read_r0[2:0] $end
$var reg 3 y read_r1[2:0] $end
$var reg 1 z wr_en $end
$var reg 3 { write_register[2:0] $end
$var reg 16 | write_data[15:0] $end
$var reg 1 } clk $end
$var reg 1 !" rst $end
$var reg 16 "" read_data0[15:0] $end
$var reg 16 #" read_data1[15:0] $end
$var reg 16 $" r0[15:0] $end
$var reg 16 %" r1[15:0] $end
$var reg 16 &" r2[15:0] $end
$var reg 16 '" r3[15:0] $end
$var reg 16 (" r4[15:0] $end
$var reg 16 )" r5[15:0] $end
$var reg 16 *" r6[15:0] $end
$var reg 16 +" r7[15:0] $end
$var reg 16 ," reg0_out[15:0] $end
$var reg 16 -" reg1_out[15:0] $end
$var reg 16 ." reg2_out[15:0] $end
$var reg 16 /" reg3_out[15:0] $end
$var reg 16 0" reg4_out[15:0] $end
$var reg 16 1" reg5_out[15:0] $end
$var reg 16 2" reg6_out[15:0] $end
$var reg 16 3" reg7_out[15:0] $end
$var reg 16 4" reg0_in[15:0] $end
$var reg 16 5" reg1_in[15:0] $end
$var reg 16 6" reg2_in[15:0] $end
$var reg 16 7" reg3_in[15:0] $end
$var reg 16 8" reg4_in[15:0] $end
$var reg 16 9" reg5_in[15:0] $end
$var reg 16 :" reg6_in[15:0] $end
$var reg 16 ;" reg7_in[15:0] $end
$var reg 1 <" wr_en0 $end
$var reg 1 =" wr_en1 $end
$var reg 1 >" wr_en2 $end
$var reg 1 ?" wr_en3 $end
$var reg 1 @" wr_en4 $end
$var reg 1 A" wr_en5 $end
$var reg 1 B" wr_en6 $end
$var reg 1 C" wr_en7 $end
$scope module reg0 $end
$var reg 1 D" clk $end
$var reg 1 E" rst $end
$var reg 1 F" wr_en $end
$var reg 16 G" data_in[15:0] $end
$var reg 16 H" data_out[15:0] $end
$var reg 16 I" reg[15:0] $end
$upscope $end
$scope module reg1 $end
$var reg 1 J" clk $end
$var reg 1 K" rst $end
$var reg 1 L" wr_en $end
$var reg 16 M" data_in[15:0] $end
$var reg 16 N" data_out[15:0] $end
$var reg 16 O" reg[15:0] $end
$upscope $end
$scope module reg2 $end
$var reg 1 P" clk $end
$var reg 1 Q" rst $end
$var reg 1 R" wr_en $end
$var reg 16 S" data_in[15:0] $end
$var reg 16 T" data_out[15:0] $end
$var reg 16 U" reg[15:0] $end
$upscope $end
$scope module reg3 $end
$var reg 1 V" clk $end
$var reg 1 W" rst $end
$var reg 1 X" wr_en $end
$var reg 16 Y" data_in[15:0] $end
$var reg 16 Z" data_out[15:0] $end
$var reg 16 [" reg[15:0] $end
$upscope $end
$scope module reg4 $end
$var reg 1 \" clk $end
$var reg 1 ]" rst $end
$var reg 1 ^" wr_en $end
$var reg 16 _" data_in[15:0] $end
$var reg 16 `" data_out[15:0] $end
$var reg 16 a" reg[15:0] $end
$upscope $end
$scope module beg5 $end
$var reg 1 b" clk $end
$var reg 1 c" rst $end
$var reg 1 d" wr_en $end
$var reg 16 e" data_in[15:0] $end
$var reg 16 f" data_out[15:0] $end
$var reg 16 g" reg[15:0] $end
$upscope $end
$scope module beg6 $end
$var reg 1 h" clk $end
$var reg 1 i" rst $end
$var reg 1 j" wr_en $end
$var reg 16 k" data_in[15:0] $end
$var reg 16 l" data_out[15:0] $end
$var reg 16 m" reg[15:0] $end
$upscope $end
$scope module beg7 $end
$var reg 1 n" clk $end
$var reg 1 o" rst $end
$var reg 1 p" wr_en $end
$var reg 16 q" data_in[15:0] $end
$var reg 16 r" data_out[15:0] $end
$var reg 16 s" reg[15:0] $end
$upscope $end
$upscope $end
$scope module instruction_reg $end
$var reg 1 t" clk $end
$var reg 1 u" rst $end
$var reg 1 v" wr_en $end
$var reg 16 w" data_in[15:0] $end
$var reg 16 x" data_out[15:0] $end
$var reg 16 y" reg[15:0] $end
$upscope $end
$scope module accumulator $end
$var reg 1 z" clk $end
$var reg 1 {" rst $end
$var reg 1 |" wr_en $end
$var reg 16 }" data_in[15:0] $end
$var reg 16 !# data_out[15:0] $end
$var reg 16 "# reg[15:0] $end
$upscope $end
$scope module proto_control_1 $end
$var reg 1 ## clk $end
$var reg 1 $# rst $end
$var reg 1 %# wr_en $end
$var reg 1 &# is_branch $end
$var reg 7 '# branch_address[6:0] $end
$var reg 2 (# estado[1:0] $end
$var reg 16 )# data_out[15:0] $end
$var reg 7 *# data_in_pc[6:0] $end
$var reg 7 +# data_out_pc[6:0] $end
$var reg 7 ,# address_rom[6:0] $end
$var reg 16 -# data_out_rom[15:0] $end
$var reg 2 .# estado_s[1:0] $end
$var reg 7 /# new_address[6:0] $end
$scope module pc $end
$var reg 1 0# clk $end
$var reg 1 1# rst $end
$var reg 1 2# wr_en $end
$var reg 7 3# data_in[6:0] $end
$var reg 7 4# data_out[6:0] $end
$var reg 7 5# reg[6:0] $end
$upscope $end
$scope module rom_1 $end
$var reg 1 6# clk $end
$var reg 7 7# address[6:0] $end
$var reg 16 8# data[15:0] $end
$upscope $end
$upscope $end
$scope module three_state_machine_1 $end
$var reg 1 9# clk $end
$var reg 1 :# rst $end
$var reg 2 ;# estado[1:0] $end
$var reg 2 <# estado_s[1:0] $end
$upscope $end
$upscope $end
$upscope $end
$enddefinitions $end
#0
bUU !
bUUUUUUUUUUUUUUUU "
bUUUUUUUUUUUUUUUU #
bUUUUUUUUUUUUUUUU $
U%
U&
bUUU '
bUUU (
bUUU )
bUUUUUUUUUUUUUUUU *
bUUUUUUUUUUUUUUUU +
U,
0-
0.
1/
b0000000000000000 0
U1
b0000000000000000 2
bUUUUUUUUUUUUUUUU 3
b0000000000000000 4
b0000000000000000 5
b0000000000000000 6
b0000000000000000 7
b0000000000000000 8
b0000000000000000 9
0:
1;
b00 <
bUUUUUUUUUUUUUUUU =
b0000000000000000 >
b0000000000000000 ?
b0000000000000000 @
b0000000000000000 A
bUUUUUUUUUUUUUUUU B
b0000000000000000 C
b0000000000000000 D
b0000000000000000 E
b0000000000000000 F
b0000000000000000 G
b0000000000000000 H
b0000000000000000 I
b0000000000000000 J
b0000000000000000 K
UL
b01 M
b0000000000000000 N
b0000000000000000 O
b0000000000000000 P
b000 Q
b000 R
bUUU S
0T
b000000000 U
b0000000000000000 V
bUUUUUUUUUUUUUUUU W
b0000 X
1Y
0Z
b0000000000000000 [
b0000000000000000 \
bUUUUUUUUUUUUUUUU ]
0^
b0000000 _
U`
b00 a
b01 b
b0000000000000000 c
b0000000000000000 d
b0000000000000000 e
Uf
b0000000000000000 g
b0000000000000000 h
bUUUUUUUUUUUUUUUU i
b0000000000000000 j
b0000000000000000 k
b0000000000000000 l
b0000000000000000 m
b0000000000000000 n
b0000000000000000 o
b0000000000000000 p
b0000000000000000 q
b0000000000000000 r
b0000000000000000 s
b0000000000000000 t
b0000000000000000 u
b0000000000000000 v
bUUUUUUUUUUUUUUUU w
b000 x
bUUU y
0z
b000 {
b0000000000000000 |
0}
1!"
b0000000000000000 ""
b0000000000000000 #"
b0000000000000000 $"
b0000000000000000 %"
b0000000000000000 &"
b0000000000000000 '"
b0000000000000000 ("
b0000000000000000 )"
b0000000000000000 *"
b0000000000000000 +"
b0000000000000000 ,"
b0000000000000000 -"
b0000000000000000 ."
b0000000000000000 /"
b0000000000000000 0"
b0000000000000000 1"
b0000000000000000 2"
b0000000000000000 3"
b0000000000000000 4"
b0000000000000000 5"
b0000000000000000 6"
b0000000000000000 7"
b0000000000000000 8"
b0000000000000000 9"
b0000000000000000 :"
b0000000000000000 ;"
0<"
0="
0>"
0?"
0@"
0A"
0B"
0C"
0D"
1E"
0F"
b0000000000000000 G"
b0000000000000000 H"
b0000000000000000 I"
0J"
1K"
0L"
b0000000000000000 M"
b0000000000000000 N"
b0000000000000000 O"
0P"
1Q"
0R"
b0000000000000000 S"
b0000000000000000 T"
b0000000000000000 U"
0V"
1W"
0X"
b0000000000000000 Y"
b0000000000000000 Z"
b0000000000000000 ["
0\"
1]"
0^"
b0000000000000000 _"
b0000000000000000 `"
b0000000000000000 a"
0b"
1c"
0d"
b0000000000000000 e"
b0000000000000000 f"
b0000000000000000 g"
0h"
1i"
0j"
b0000000000000000 k"
b0000000000000000 l"
b0000000000000000 m"
0n"
1o"
0p"
b0000000000000000 q"
b0000000000000000 r"
b0000000000000000 s"
0t"
1u"
1v"
bUUUUUUUUUUUUUUUU w"
b0000000000000000 x"
b0000000000000000 y"
0z"
1{"
0|"
b0000000000000000 }"
b0000000000000000 !#
b0000000000000000 "#
0##
1$#
U%#
0&#
b0000000 '#
b00 (#
bUUUUUUUUUUUUUUUU )#
b0000000 *#
b0000000 +#
b0000000 ,#
bUUUUUUUUUUUUUUUU -#
b00 .#
b0000001 /#
00#
11#
U2#
b0000000 3#
b0000000 4#
b0000000 5#
06#
b0000000 7#
bUUUUUUUUUUUUUUUU 8#
09#
1:#
b00 ;#
b00 <#
#25000000
1.
1:
b0001011000000101 =
b0001011000000101 W
b0001011000000101 ]
1}
1D"
1J"
1P"
1V"
1\"
1b"
1h"
1n"
1t"
b0001011000000101 w"
1z"
1##
b0001011000000101 )#
b0001011000000101 -#
10#
16#
b0001011000000101 8#
19#
#50000000
0.
0:
0}
0D"
0J"
0P"
0V"
0\"
0b"
0h"
0n"
0t"
0z"
0##
00#
06#
09#
#75000000
1.
1:
1}
1D"
1J"
1P"
1V"
1\"
1b"
1h"
1n"
1t"
1z"
1##
10#
16#
19#
#100000000
0.
0/
0:
0;
0}
0!"
0D"
0E"
0J"
0K"
0P"
0Q"
0V"
0W"
0\"
0]"
0b"
0c"
0h"
0i"
0n"
0o"
0t"
0u"
0z"
0{"
0##
0$#
00#
01#
06#
09#
0:#
#125000000
1.
1:
b01 <
b0001011000000101 >
b0000000000000101 P
b011 Q
1T
b000000101 U
b0001011000000101 V
b0001 X
b0110000 _
b01 a
1z
b011 {
b0000000000000101 |
1}
b0000000000000101 5"
b0000000000000101 6"
b0000000000000101 7"
b0000000000000101 8"
b0000000000000101 9"
b0000000000000101 :"
b0000000000000101 ;"
1?"
1D"
1J"
b0000000000000101 M"
1P"
b0000000000000101 S"
1V"
1X"
b0000000000000101 Y"
1\"
b0000000000000101 _"
1b"
b0000000000000101 e"
1h"
b0000000000000101 k"
1n"
b0000000000000101 q"
1t"
b0001011000000101 x"
b0001011000000101 y"
1z"
1##
b0110000 '#
b01 (#
b01 .#
10#
16#
19#
b01 ;#
b01 <#
#150000000
0.
0:
0}
0D"
0J"
0P"
0V"
0\"
0b"
0h"
0n"
0t"
0z"
0##
00#
06#
09#
#175000000
1.
b0000000000000101 5
1:
b10 <
b0000000000000101 D
0T
1`
b10 a
0z
1}
b0000000000000101 '"
b0000000000000101 /"
0?"
1D"
1J"
1P"
1V"
0X"
b0000000000000101 Z"
b0000000000000101 ["
1\"
1b"
1h"
1n"
1t"
1z"
1##
1%#
b10 (#
b0000001 *#
b10 .#
10#
12#
b0000001 3#
16#
19#
b10 ;#
b10 <#
#200000000
0.
0:
0}
0D"
0J"
0P"
0V"
0\"
0b"
0h"
0n"
0t"
0z"
0##
00#
06#
09#
#225000000
1.
1:
b00 <
b00 a
1}
1D"
1J"
1P"
1V"
1\"
1b"
1h"
1n"
1t"
1z"
1##
b00 (#
b0000001 +#
b0000001 ,#
b00 .#
b0000010 /#
10#
b0000001 4#
b0000001 5#
16#
b0000001 7#
19#
b00 ;#
b00 <#
#250000000
0.
0:
0}
0D"
0J"
0P"
0V"
0\"
0b"
0h"
0n"
0t"
0z"
0##
00#
06#
09#
#275000000
1.
1:
b01 <
b0001100000001000 =
1T
b0001100000001000 W
b0001100000001000 ]
b01 a
1z
1}
1?"
1D"
1J"
1P"
1V"
1X"
1\"
1b"
1h"
1n"
1t"
b0001100000001000 w"
1z"
1##
b01 (#
b0001100000001000 )#
b0001100000001000 -#
b01 .#
10#
16#
b0001100000001000 8#
19#
b01 ;#
b01 <#
#300000000
0.
0:
0}
0D"
0J"
0P"
0V"
0\"
0b"
0h"
0n"
0t"
0z"
0##
00#
06#
09#
#325000000
1.
1:
b10 <
b0001100000001000 >
b0000000000001000 P
b100 Q
0T
b000001000 U
b0001100000001000 V
b1000000 _
b10 a
0z
b100 {
b0000000000001000 |
1}
b0000000000001000 5"
b0000000000001000 6"
b0000000000001000 7"
b0000000000001000 8"
b0000000000001000 9"
b0000000000001000 :"
b0000000000001000 ;"
0?"
1D"
1J"
b0000000000001000 M"
1P"
b0000000000001000 S"
1V"
0X"
b0000000000001000 Y"
1\"
b0000000000001000 _"
1b"
b0000000000001000 e"
1h"
b0000000000001000 k"
1n"
b0000000000001000 q"
1t"
b0001100000001000 x"
b0001100000001000 y"
1z"
1##
b1000000 '#
b10 (#
b0000010 *#
b10 .#
10#
b0000010 3#
16#
19#
b10 ;#
b10 <#
#350000000
0.
0:
0}
0D"
0J"
0P"
0V"
0\"
0b"
0h"
0n"
0t"
0z"
0##
00#
06#
09#
#375000000
1.
1:
b00 <
b00 a
1}
1D"
1J"
1P"
1V"
1\"
1b"
1h"
1n"
1t"
1z"
1##
b00 (#
b0000010 +#
b0000010 ,#
b00 .#
b0000011 /#
10#
b0000010 4#
b0000010 5#
16#
b0000010 7#
19#
b00 ;#
b00 <#
#400000000
0.
0:
0}
0D"
0J"
0P"
0V"
0\"
0b"
0h"
0n"
0t"
0z"
0##
00#
06#
09#
#425000000
1.
1:
b01 <
b0110000000000000 =
1T
b0110000000000000 W
b0110000000000000 ]
b01 a
1z
1}
1@"
1D"
1J"
1P"
1V"
1\"
1^"
1b"
1h"
1n"
1t"
b0110000000000000 w"
1z"
1##
b01 (#
b0110000000000000 )#
b0110000000000000 -#
b01 .#
10#
16#
b0110000000000000 8#
19#
b01 ;#
b01 <#
#450000000
0.
0:
0}
0D"
0J"
0P"
0V"
0\"
0b"
0h"
0n"
0t"
0z"
0##
00#
06#
09#
#475000000
1.
b0000000000001000 6
1:
b10 <
b0110000000000000 >
b0000000000001000 E
b0000000000000000 P
b000 Q
0T
b000000000 U
b0110000000000000 V
b0110 X
1Z
b0000000 _
b10 a
0z
b000 {
b0000000000000000 |
1}
b0000000000001000 ("
b0000000000001000 0"
b0000000000000000 5"
b0000000000000000 6"
b0000000000000000 7"
b0000000000000000 8"
b0000000000000000 9"
b0000000000000000 :"
b0000000000000000 ;"
0@"
1D"
1J"
b0000000000000000 M"
1P"
b0000000000000000 S"
1V"
b0000000000000000 Y"
1\"
0^"
b0000000000000000 _"
b0000000000001000 `"
b0000000000001000 a"
1b"
b0000000000000000 e"
1h"
b0000000000000000 k"
1n"
b0000000000000000 q"
1t"
b0110000000000000 x"
b0110000000000000 y"
1z"
1|"
1##
b0000000 '#
b10 (#
b0000011 *#
b10 .#
10#
b0000011 3#
16#
19#
b10 ;#
b10 <#
#500000000
0.
0:
0}
0D"
0J"
0P"
0V"
0\"
0b"
0h"
0n"
0t"
0z"
0##
00#
06#
09#
#525000000
1.
1:
b00 <
0Z
b00 a
1}
1D"
1J"
1P"
1V"
1\"
1b"
1h"
1n"
1t"
1z"
0|"
1##
b00 (#
b0000011 +#
b0000011 ,#
b00 .#
b0000100 /#
10#
b0000011 4#
b0000011 5#
16#
b0000011 7#
19#
b00 ;#
b00 <#
#550000000
0.
0:
0}
0D"
0J"
0P"
0V"
0\"
0b"
0h"
0n"
0t"
0z"
0##
00#
06#
09#
#575000000
1.
1:
b01 <
b0010000011000000 =
b0010000011000000 W
b0010000011000000 ]
b01 a
1}
1D"
1J"
1P"
1V"
1\"
1b"
1h"
1n"
1t"
b0010000011000000 w"
1z"
1##
b01 (#
b0010000011000000 )#
b0010000011000000 -#
b01 .#
10#
16#
b0010000011000000 8#
19#
b01 ;#
b01 <#
#600000000
0.
0:
0}
0D"
0J"
0P"
0V"
0\"
0b"
0h"
0n"
0t"
0z"
0##
00#
06#
09#
#625000000
1.
b0000000000000101 0
1:
b10 <
b0010000011000000 >
b0000000000000101 @
b0000000000000101 J
b0000000000000101 K
b00 M
b0000000000000101 N
b0000000011000000 P
b011 R
b011000000 U
b0010000011000000 V
b0010 X
1Z
b0000000000000101 [
b0000110 _
b10 a
b00 b
b0000000000000101 d
b0000000000000101 e
b0000000000000101 g
b1111111111111011 h
b0000000000000X0X j
b0000000000000101 l
b0000000000000101 m
b0000000000000101 o
b1111111111111011 p
b0000000000000101 r
b0000000000000X0X s
b0000000000000101 u
b0000000000000X0X v
b011 x
b0000000011000000 |
1}
b0000000000000101 ""
b0000000011000000 5"
b0000000011000000 6"
b0000000011000000 7"
b0000000011000000 8"
b0000000011000000 9"
b0000000011000000 :"
b0000000011000000 ;"
1D"
1J"
b0000000011000000 M"
1P"
b0000000011000000 S"
1V"
b0000000011000000 Y"
1\"
b0000000011000000 _"
1b"
b0000000011000000 e"
1h"
b0000000011000000 k"
1n"
b0000000011000000 q"
1t"
b0010000011000000 x"
b0010000011000000 y"
1z"
1|"
b0000000000000101 }"
1##
b0000110 '#
b10 (#
b0000100 *#
b10 .#
10#
b0000100 3#
16#
19#
b10 ;#
b10 <#
#650000000
0.
0:
0}
0D"
0J"
0P"
0V"
0\"
0b"
0h"
0n"
0t"
0z"
0##
00#
06#
09#
#675000000
1.
b0000000000001010 0
1:
b00 <
b0000000000000101 ?
b0000000000001010 @
b0000000000000101 I
b0000000000001010 K
0Z
b0000000000001010 [
b0000000000000101 \
b00 a
b0000000000000101 c
b0000000000001010 e
b0000000000001010 g
b0000000000000000 h
b0000000000000101 k
b0000000000001010 m
b0000000000000101 n
b0000000000000000 p
b0000000000000101 q
b0000000000000X0X s
b0000000000000101 t
b0000000000000X0X v
1}
1D"
1J"
1P"
1V"
1\"
1b"
1h"
1n"
1t"
1z"
0|"
b0000000000001010 }"
b0000000000000101 !#
b0000000000000101 "#
1##
b00 (#
b0000100 +#
b0000100 ,#
b00 .#
b0000101 /#
10#
b0000100 4#
b0000100 5#
16#
b0000100 7#
19#
b00 ;#
b00 <#
#700000000
0.
0:
0}
0D"
0J"
0P"
0V"
0\"
0b"
0h"
0n"
0t"
0z"
0##
00#
06#
09#
#725000000
1.
1:
b01 <
b0010000100000000 =
b0010000100000000 W
b0010000100000000 ]
b01 a
1}
1D"
1J"
1P"
1V"
1\"
1b"
1h"
1n"
1t"
b0010000100000000 w"
1z"
1##
b01 (#
b0010000100000000 )#
b0010000100000000 -#
b01 .#
10#
16#
b0010000100000000 8#
19#
b01 ;#
b01 <#
#750000000
0.
0:
0}
0D"
0J"
0P"
0V"
0\"
0b"
0h"
0n"
0t"
0z"
0##
00#
06#
09#
#775000000
1.
b0000000000001101 0
1:
b10 <
b0010000100000000 >
b0000000000001101 @
b0000000000001000 J
b0000000000001101 K
b0000000000001000 N
b0000000100000000 P
b100 R
b100000000 U
b0010000100000000 V
1Z
b0000000000001101 [
b0001000 _
b10 a
b0000000000001000 d
b0000000000001101 e
b0000000000001101 g
b1111111111111101 h
b000000000000XX0X j
b0000000000001000 l
b0000000000001101 m
b0000000000001000 o
b1111111111111101 p
b0000000000001000 r
b000000000000XX0X s
b0000000000001000 u
b000000000000XX0X v
b100 x
b0000000100000000 |
1}
b0000000000001000 ""
b0000000100000000 5"
b0000000100000000 6"
b0000000100000000 7"
b0000000100000000 8"
b0000000100000000 9"
b0000000100000000 :"
b0000000100000000 ;"
1D"
1J"
b0000000100000000 M"
1P"
b0000000100000000 S"
1V"
b0000000100000000 Y"
1\"
b0000000100000000 _"
1b"
b0000000100000000 e"
1h"
b0000000100000000 k"
1n"
b0000000100000000 q"
1t"
b0010000100000000 x"
b0010000100000000 y"
1z"
1|"
b0000000000001101 }"
1##
b0001000 '#
b10 (#
b0000101 *#
b10 .#
10#
b0000101 3#
16#
19#
b10 ;#
b10 <#
#800000000
0.
0:
0}
0D"
0J"
0P"
0V"
0\"
0b"
0h"
0n"
0t"
0z"
0##
00#
06#
09#
#825000000
1.
b0000000000010101 0
1:
b00 <
b0000000000001101 ?
b0000000000010101 @
b0000000000001101 I
b0000000000010101 K
0Z
b0000000000010101 [
b0000000000001101 \
b00 a
b0000000000001101 c
b0000000000010101 e
b0000000000010101 g
b0000000000000101 h
b0000000000001101 k
b0000000000010101 m
b0000000000001101 n
b0000000000000101 p
b0000000000001101 q
b000000000000XX0X s
b0000000000001101 t
b000000000000XX0X v
1}
1D"
1J"
1P"
1V"
1\"
1b"
1h"
1n"
1t"
1z"
0|"
b0000000000010101 }"
b0000000000001101 !#
b0000000000001101 "#
1##
b00 (#
b0000101 +#
b0000101 ,#
b00 .#
b0000110 /#
10#
b0000101 4#
b0000101 5#
16#
b0000101 7#
19#
b00 ;#
b00 <#
#850000000
0.
0:
0}
0D"
0J"
0P"
0V"
0\"
0b"
0h"
0n"
0t"
0z"
0##
00#
06#
09#
#875000000
1.
1:
b01 <
b0111101000000000 =
b0111101000000000 W
b0111101000000000 ]
b01 a
1}
1D"
1J"
1P"
1V"
1\"
1b"
1h"
1n"
1t"
b0111101000000000 w"
1z"
1##
b01 (#
b0111101000000000 )#
b0111101000000000 -#
b01 .#
10#
16#
b0111101000000000 8#
19#
b01 ;#
b01 <#
#900000000
0.
0:
0}
0D"
0J"
0P"
0V"
0\"
0b"
0h"
0n"
0t"
0z"
0##
00#
06#
09#
#925000000
1.
b0000000000001101 0
1:
b10 <
b0111101000000000 >
b0000000000001101 @
b0000000000000000 J
b0000000000001101 K
b01 M
b0000000000000000 N
b0000000000001101 P
b101 Q
b000 R
b000000000 U
b0111101000000000 V
b0111 X
0Z
b0000000000001101 [
b1010000 _
b10 a
b01 b
b0000000000000000 d
b0000000000001101 e
b0000000000001101 g
b0000000000001101 h
b0000000000000000 l
b0000000000001101 m
b0000000000000000 o
b0000000000001101 p
b0000000000000000 r
b000000000000XX0X s
b0000000000000000 u
b000000000000XX0X v
b000 x
b101 {
b0000000000001101 |
1}
b0000000000000000 ""
b0000000000001101 5"
b0000000000001101 6"
b0000000000001101 7"
b0000000000001101 8"
b0000000000001101 9"
b0000000000001101 :"
b0000000000001101 ;"
1D"
1J"
b0000000000001101 M"
1P"
b0000000000001101 S"
1V"
b0000000000001101 Y"
1\"
b0000000000001101 _"
1b"
b0000000000001101 e"
1h"
b0000000000001101 k"
1n"
b0000000000001101 q"
1t"
b0111101000000000 x"
b0111101000000000 y"
1z"
0|"
b0000000000001101 }"
1##
b1010000 '#
b10 (#
b0000110 *#
b10 .#
10#
b0000110 3#
16#
19#
b10 ;#
b10 <#
#950000000
0.
0:
0}
0D"
0J"
0P"
0V"
0\"
0b"
0h"
0n"
0t"
0z"
0##
00#
06#
09#
#975000000
1.
1:
b00 <
b00 a
1}
1D"
1J"
1P"
1V"
1\"
1b"
1h"
1n"
1t"
1z"
1##
b00 (#
b0000110 +#
b0000110 ,#
b00 .#
b0000111 /#
10#
b0000110 4#
b0000110 5#
16#
b0000110 7#
19#
b00 ;#
b00 <#
#1000000000
0.
0:
0}
0D"
0J"
0P"
0V"
0\"
0b"
0h"
0n"
0t"
0z"
0##
00#
06#
09#
#1025000000
1.
1:
b01 <
b0110000101000000 =
1T
b0110000101000000 W
b0110000101000000 ]
b01 a
1z
1}
1A"
1D"
1J"
1P"
1V"
1\"
1b"
1d"
1h"
1n"
1t"
b0110000101000000 w"
1z"
1##
b01 (#
b0110000101000000 )#
b0110000101000000 -#
b01 .#
10#
16#
b0110000101000000 8#
19#
b01 ;#
b01 <#
#1050000000
0.
0:
0}
0D"
0J"
0P"
0V"
0\"
0b"
0h"
0n"
0t"
0z"
0##
00#
06#
09#
#1075000000
1.
b0000000000000000 0
b0000000000001101 7
1:
b10 <
b0110000101000000 >
b0000000000000000 @
b0000000000001101 F
b0000000000001101 J
b0000000000000000 K
b0000000000001101 N
b0000000101000000 P
b000 Q
b101 R
0T
b101000000 U
b0110000101000000 V
b0110 X
1Z
b0000000000001101 [
b0001010 _
b10 a
b0000000000001101 d
b0000000000000000 e
b0000000000011010 g
b0000000000000000 h
b0000000000001101 l
b0000000000011010 m
b0000000000001101 o
b0000000000000000 p
b0000000000001101 r
b000000000000XX0X s
b0000000000001101 u
b000000000000XX0X v
b101 x
0z
b000 {
b0000000101000000 |
1}
b0000000000001101 ""
b0000000000001101 )"
b0000000000001101 1"
b0000000101000000 5"
b0000000101000000 6"
b0000000101000000 7"
b0000000101000000 8"
b0000000101000000 9"
b0000000101000000 :"
b0000000101000000 ;"
0A"
1D"
1J"
b0000000101000000 M"
1P"
b0000000101000000 S"
1V"
b0000000101000000 Y"
1\"
b0000000101000000 _"
1b"
0d"
b0000000101000000 e"
b0000000000001101 f"
b0000000000001101 g"
1h"
b0000000101000000 k"
1n"
b0000000101000000 q"
1t"
b0110000101000000 x"
b0110000101000000 y"
1z"
1|"
b0000000000001101 }"
1##
b0001010 '#
b10 (#
b0000111 *#
b10 .#
10#
b0000111 3#
16#
19#
b10 ;#
b10 <#
#1100000000
0.
0:
0}
0D"
0J"
0P"
0V"
0\"
0b"
0h"
0n"
0t"
0z"
0##
00#
06#
09#
#1125000000
1.
1:
b00 <
0Z
b00 a
1}
1D"
1J"
1P"
1V"
1\"
1b"
1h"
1n"
1t"
1z"
0|"
1##
b00 (#
b0000111 +#
b0000111 ,#
b00 .#
b0001000 /#
10#
b0000111 4#
b0000111 5#
16#
b0000111 7#
19#
b00 ;#
b00 <#
#1150000000
0.
0:
0}
0D"
0J"
0P"
0V"
0\"
0b"
0h"
0n"
0t"
0z"
0##
00#
06#
09#
#1175000000
1.
1:
b01 <
b0101000000000001 =
b0101000000000001 W
b0101000000000001 ]
b01 a
1}
1D"
1J"
1P"
1V"
1\"
1b"
1h"
1n"
1t"
b0101000000000001 w"
1z"
1##
b01 (#
b0101000000000001 )#
b0101000000000001 -#
b01 .#
10#
16#
b0101000000000001 8#
19#
b01 ;#
b01 <#
#1200000000
0.
0:
0}
0D"
0J"
0P"
0V"
0\"
0b"
0h"
0n"
0t"
0z"
0##
00#
06#
09#
