uprocessor.vcd
$date
  Fri May  3 14:55:11 2024
$end
$version
  GHDL v0
$end
$timescale
  1 fs
$end
$scope module standard $end
$upscope $end
$scope module std_logic_1164 $end
$upscope $end
$scope module numeric_std $end
$upscope $end
$scope module uprocessor $end
$var reg 2 ! operation[1:0] $end
$var reg 16 " in_a[15:0] $end
$var reg 16 # in_b[15:0] $end
$var reg 16 $ saida[15:0] $end
$var reg 1 % is_zero $end
$var reg 1 & mux_2 $end
$var reg 3 ' read_0[2:0] $end
$var reg 3 ( read_1[2:0] $end
$var reg 3 ) write_register[2:0] $end
$var reg 16 * read_data1[15:0] $end
$var reg 16 + cte[15:0] $end
$var reg 1 , write_enable $end
$var reg 1 - finished $end
$var reg 1 . clk $end
$var reg 1 / rst $end
$scope module uut $end
$var reg 2 0 operation[1:0] $end
$var reg 16 1 in_a[15:0] $end
$var reg 16 2 in_b[15:0] $end
$var reg 16 3 saida[15:0] $end
$var reg 1 4 is_zero $end
$var reg 16 5 result_adder[15:0] $end
$var reg 16 6 result_subtracter[15:0] $end
$var reg 16 7 result_and[15:0] $end
$var reg 16 8 result_xor[15:0] $end
$scope module adder1 $end
$var reg 16 9 in_a[15:0] $end
$var reg 16 : in_b[15:0] $end
$var reg 16 ; result[15:0] $end
$upscope $end
$scope module subtracter1 $end
$var reg 16 < in_a[15:0] $end
$var reg 16 = in_b[15:0] $end
$var reg 16 > result[15:0] $end
$upscope $end
$scope module and_op1 $end
$var reg 16 ? in_a[15:0] $end
$var reg 16 @ in_b[15:0] $end
$var reg 16 A result[15:0] $end
$upscope $end
$scope module xor_op1 $end
$var reg 16 B in_a[15:0] $end
$var reg 16 C in_b[15:0] $end
$var reg 16 D result[15:0] $end
$var reg 16 E aux[15:0] $end
$upscope $end
$upscope $end
$scope module reg_b $end
$var reg 3 F read_r0[2:0] $end
$var reg 3 G read_r1[2:0] $end
$var reg 1 H write_enable $end
$var reg 3 I write_register[2:0] $end
$var reg 16 J write_data[15:0] $end
$var reg 1 K clk $end
$var reg 1 L rst $end
$var reg 16 M read_data0[15:0] $end
$var reg 16 N read_data1[15:0] $end
$var reg 16 O reg0_out[15:0] $end
$var reg 16 P reg1_out[15:0] $end
$var reg 16 Q reg2_out[15:0] $end
$var reg 16 R reg3_out[15:0] $end
$var reg 16 S reg4_out[15:0] $end
$var reg 16 T reg5_out[15:0] $end
$var reg 16 U reg6_out[15:0] $end
$var reg 16 V reg7_out[15:0] $end
$var reg 16 W reg0_in[15:0] $end
$var reg 16 X reg1_in[15:0] $end
$var reg 16 Y reg2_in[15:0] $end
$var reg 16 Z reg3_in[15:0] $end
$var reg 16 [ reg4_in[15:0] $end
$var reg 16 \ reg5_in[15:0] $end
$var reg 16 ] reg6_in[15:0] $end
$var reg 16 ^ reg7_in[15:0] $end
$var reg 1 _ write_enable0 $end
$var reg 1 ` write_enable1 $end
$var reg 1 a write_enable2 $end
$var reg 1 b write_enable3 $end
$var reg 1 c write_enable4 $end
$var reg 1 d write_enable5 $end
$var reg 1 e write_enable6 $end
$var reg 1 f write_enable7 $end
$scope module reg0 $end
$var reg 1 g clk $end
$var reg 1 h rst $end
$var reg 1 i wr_en $end
$var reg 16 j data_in[15:0] $end
$var reg 16 k data_out[15:0] $end
$var reg 16 l reg[15:0] $end
$upscope $end
$scope module reg1 $end
$var reg 1 m clk $end
$var reg 1 n rst $end
$var reg 1 o wr_en $end
$var reg 16 p data_in[15:0] $end
$var reg 16 q data_out[15:0] $end
$var reg 16 r reg[15:0] $end
$upscope $end
$scope module reg2 $end
$var reg 1 s clk $end
$var reg 1 t rst $end
$var reg 1 u wr_en $end
$var reg 16 v data_in[15:0] $end
$var reg 16 w data_out[15:0] $end
$var reg 16 x reg[15:0] $end
$upscope $end
$scope module reg3 $end
$var reg 1 y clk $end
$var reg 1 z rst $end
$var reg 1 { wr_en $end
$var reg 16 | data_in[15:0] $end
$var reg 16 } data_out[15:0] $end
$var reg 16 !" reg[15:0] $end
$upscope $end
$scope module reg4 $end
$var reg 1 "" clk $end
$var reg 1 #" rst $end
$var reg 1 $" wr_en $end
$var reg 16 %" data_in[15:0] $end
$var reg 16 &" data_out[15:0] $end
$var reg 16 '" reg[15:0] $end
$upscope $end
$scope module beg5 $end
$var reg 1 (" clk $end
$var reg 1 )" rst $end
$var reg 1 *" wr_en $end
$var reg 16 +" data_in[15:0] $end
$var reg 16 ," data_out[15:0] $end
$var reg 16 -" reg[15:0] $end
$upscope $end
$scope module beg6 $end
$var reg 1 ." clk $end
$var reg 1 /" rst $end
$var reg 1 0" wr_en $end
$var reg 16 1" data_in[15:0] $end
$var reg 16 2" data_out[15:0] $end
$var reg 16 3" reg[15:0] $end
$upscope $end
$scope module beg7 $end
$var reg 1 4" clk $end
$var reg 1 5" rst $end
$var reg 1 6" wr_en $end
$var reg 16 7" data_in[15:0] $end
$var reg 16 8" data_out[15:0] $end
$var reg 16 9" reg[15:0] $end
$upscope $end
$upscope $end
$upscope $end
$enddefinitions $end
#0
bUU !
b0000000000000000 "
bUUUUUUUUUUUUUUUU #
b0000000000000000 $
U%
U&
bUUU '
bUUU (
bUUU )
b0000000000000000 *
bUUUUUUUUUUUUUUUU +
U,
0-
0.
1/
bUU 0
b0000000000000000 1
bUUUUUUUUUUUUUUUU 2
b0000000000000000 3
U4
bXXXXXXXXXXXXXXXX 5
bXXXXXXXXXXXXXXXX 6
bUUUUUUUUUUUUUUUU 7
bUUUUUUUUUUUUUUUU 8
b0000000000000000 9
bUUUUUUUUUUUUUUUU :
bXXXXXXXXXXXXXXXX ;
b0000000000000000 <
bUUUUUUUUUUUUUUUU =
bXXXXXXXXXXXXXXXX >
b0000000000000000 ?
bUUUUUUUUUUUUUUUU @
bUUUUUUUUUUUUUUUU A
b0000000000000000 B
bUUUUUUUUUUUUUUUU C
bUUUUUUUUUUUUUUUU D
bUUUUUUUUUUUUUUUU E
bUUU F
bUUU G
UH
bUUU I
b0000000000000000 J
0K
1L
b0000000000000000 M
b0000000000000000 N
b0000000000000000 O
b0000000000000000 P
b0000000000000000 Q
b0000000000000000 R
b0000000000000000 S
b0000000000000000 T
b0000000000000000 U
b0000000000000000 V
b0000000000000000 W
b0000000000000000 X
b0000000000000000 Y
b0000000000000000 Z
b0000000000000000 [
b0000000000000000 \
b0000000000000000 ]
b0000000000000000 ^
0_
0`
0a
0b
0c
0d
0e
0f
0g
1h
0i
b0000000000000000 j
b0000000000000000 k
b0000000000000000 l
0m
1n
0o
b0000000000000000 p
b0000000000000000 q
b0000000000000000 r
0s
1t
0u
b0000000000000000 v
b0000000000000000 w
b0000000000000000 x
0y
1z
0{
b0000000000000000 |
b0000000000000000 }
b0000000000000000 !"
0""
1#"
0$"
b0000000000000000 %"
b0000000000000000 &"
b0000000000000000 '"
0("
1)"
0*"
b0000000000000000 +"
b0000000000000000 ,"
b0000000000000000 -"
0."
1/"
00"
b0000000000000000 1"
b0000000000000000 2"
b0000000000000000 3"
04"
15"
06"
b0000000000000000 7"
b0000000000000000 8"
b0000000000000000 9"
#50000000
1.
1K
1g
1m
1s
1y
1""
1("
1."
14"
#100000000
0.
0K
0g
0m
0s
0y
0""
0("
0."
04"
#150000000
1.
1K
1g
1m
1s
1y
1""
1("
1."
14"
#200000000
0,
0.
0/
0H
0K
0L
0g
0h
0m
0n
0s
0t
0y
0z
0""
0#"
0("
0)"
0."
0/"
04"
05"
#250000000
1.
1K
1g
1m
1s
1y
1""
1("
1."
14"
#300000000
b00 !
b0000000000000101 #
b0000000000000101 $
1&
b000 '
b101 )
b0000000000000101 +
0.
b00 0
b0000000000000101 2
b0000000000000101 3
b0000000000000101 5
b1111111111111011 6
b0000000000000X0X 8
b0000000000000101 :
b0000000000000101 ;
b0000000000000101 =
b1111111111111011 >
b0000000000000101 @
b0000000000000X0X A
b0000000000000101 C
b0000000000000X0X D
b000 F
b101 I
b0000000000000101 J
0K
b0000000000000101 X
b0000000000000101 Y
b0000000000000101 Z
b0000000000000101 [
b0000000000000101 \
b0000000000000101 ]
b0000000000000101 ^
0g
0m
b0000000000000101 p
0s
b0000000000000101 v
0y
b0000000000000101 |
0""
b0000000000000101 %"
0("
b0000000000000101 +"
0."
b0000000000000101 1"
04"
b0000000000000101 7"
#350000000
1.
1K
1g
1m
1s
1y
1""
1("
1."
14"
#400000000
1,
0.
1H
0K
1d
0g
0m
0s
0y
0""
0("
1*"
0."
04"
#450000000
1.
1K
b0000000000000101 T
1g
1m
1s
1y
1""
1("
b0000000000000101 ,"
b0000000000000101 -"
1."
14"
#500000000
0,
0.
0H
0K
0d
0g
0m
0s
0y
0""
0("
0*"
0."
04"
#550000000
1.
1K
1g
1m
1s
1y
1""
1("
1."
14"
#600000000
b0000000000000101 "
b0000000000000111 #
b0000000000001100 $
b101 '
b100 )
b0000000000000111 +
0.
b0000000000000101 1
b0000000000000111 2
b0000000000001100 3
b0000000000001100 5
b1111111111111110 6
b0000000000000XXX 8
b0000000000000101 9
b0000000000000111 :
b0000000000001100 ;
b0000000000000101 <
b0000000000000111 =
b1111111111111110 >
b0000000000000101 ?
b0000000000000111 @
b0000000000000XXX A
b0000000000000101 B
b0000000000000111 C
b0000000000000XXX D
b101 F
b100 I
b0000000000001100 J
0K
b0000000000000101 M
b0000000000001100 X
b0000000000001100 Y
b0000000000001100 Z
b0000000000001100 [
b0000000000001100 \
b0000000000001100 ]
b0000000000001100 ^
0g
0m
b0000000000001100 p
0s
b0000000000001100 v
0y
b0000000000001100 |
0""
b0000000000001100 %"
0("
b0000000000001100 +"
0."
b0000000000001100 1"
04"
b0000000000001100 7"
#650000000
1.
1K
1g
1m
1s
1y
1""
1("
1."
14"
#700000000
1,
0.
1H
0K
1c
0g
0m
0s
0y
0""
1$"
0("
0."
04"
#750000000
1.
1K
b0000000000001100 S
1g
1m
1s
1y
1""
b0000000000001100 &"
b0000000000001100 '"
1("
1."
14"
#800000000
0,
0.
0H
0K
0c
0g
0m
0s
0y
0""
0$"
0("
0."
04"
#850000000
1.
1K
1g
1m
1s
1y
1""
1("
1."
14"
#900000000
b01 !
b0000000000001100 #
b1111111111111001 $
0&
b100 (
b111 )
b0000000000001100 *
0.
b01 0
b0000000000001100 2
b1111111111111001 3
b0000000000010001 5
b1111111111111001 6
b000000000000XX0X 8
b0000000000001100 :
b0000000000010001 ;
b0000000000001100 =
b1111111111111001 >
b0000000000001100 @
b000000000000XX0X A
b0000000000001100 C
b000000000000XX0X D
b100 G
b111 I
b1111111111111001 J
0K
b0000000000001100 N
b1111111111111001 X
b1111111111111001 Y
b1111111111111001 Z
b1111111111111001 [
b1111111111111001 \
b1111111111111001 ]
b1111111111111001 ^
0g
0m
b1111111111111001 p
0s
b1111111111111001 v
0y
b1111111111111001 |
0""
b1111111111111001 %"
0("
b1111111111111001 +"
0."
b1111111111111001 1"
04"
b1111111111111001 7"
#950000000
1.
1K
1g
1m
1s
1y
1""
1("
1."
14"
#1000000000
1,
0.
1H
0K
1f
0g
0m
0s
0y
0""
0("
0."
04"
16"
#1050000000
1.
1K
b1111111111111001 V
1g
1m
1s
1y
1""
1("
1."
14"
b1111111111111001 8"
b1111111111111001 9"
